chisel3/test_run_dir/FullQueueFlushEdgecaseTester/202203291516542365188589160948267/dump.vcd
$version Generated by VerilatedVcd $end
$date Tue Mar 29 15:17:13 2022 $end
$timescale 1ps $end

 $scope module TOP $end
  $var wire  1 M clock $end
  $var wire  1 N reset $end
  $scope module FullQueueFlushEdgecaseTester $end
   $var wire  1 M clock $end
   $var wire  3 = currQCnt [2:0] $end
   $var wire  1 * flush $end
   $var wire  1 > flushRegister $end
   $var wire  5 < outCnt [4:0] $end
   $var wire  1 M q_clock $end
   $var wire  2 ) q_io_count [1:0] $end
   $var wire  4 ( q_io_deq_bits [3:0] $end
   $var wire  1 & q_io_deq_ready $end
   $var wire  8 ? q_io_deq_ready_lo [7:0] $end
   $var wire  1 M q_io_deq_ready_prng_clock $end
   $var wire  1 + q_io_deq_ready_prng_io_out_0 $end
   $var wire  1 , q_io_deq_ready_prng_io_out_1 $end
   $var wire  1 5 q_io_deq_ready_prng_io_out_10 $end
   $var wire  1 6 q_io_deq_ready_prng_io_out_11 $end
   $var wire  1 7 q_io_deq_ready_prng_io_out_12 $end
   $var wire  1 8 q_io_deq_ready_prng_io_out_13 $end
   $var wire  1 9 q_io_deq_ready_prng_io_out_14 $end
   $var wire  1 : q_io_deq_ready_prng_io_out_15 $end
   $var wire  1 - q_io_deq_ready_prng_io_out_2 $end
   $var wire  1 . q_io_deq_ready_prng_io_out_3 $end
   $var wire  1 / q_io_deq_ready_prng_io_out_4 $end
   $var wire  1 0 q_io_deq_ready_prng_io_out_5 $end
   $var wire  1 1 q_io_deq_ready_prng_io_out_6 $end
   $var wire  1 2 q_io_deq_ready_prng_io_out_7 $end
   $var wire  1 3 q_io_deq_ready_prng_io_out_8 $end
   $var wire  1 4 q_io_deq_ready_prng_io_out_9 $end
   $var wire  1 N q_io_deq_ready_prng_reset $end
   $var wire  1 ' q_io_deq_valid $end
   $var wire  4 % q_io_enq_bits [3:0] $end
   $var wire  1 # q_io_enq_ready $end
   $var wire  1 $ q_io_enq_valid $end
   $var wire  1 * q_io_flush $end
   $var wire  1 N q_reset $end
   $var wire  1 N reset $end
   $var wire  5 ; value [4:0] $end
   $var wire  1 @ wrap $end
   $scope module q $end
    $var wire  1 M clock $end
    $var wire  1 C deq_ptr_value $end
    $var wire  1 K do_deq $end
    $var wire  1 J do_enq $end
    $var wire  1 H empty $end
    $var wire  1 D enq_ptr_value $end
    $var wire  1 I full $end
    $var wire  2 ) io_count [1:0] $end
    $var wire  4 ( io_deq_bits [3:0] $end
    $var wire  1 & io_deq_ready $end
    $var wire  1 ' io_deq_valid $end
    $var wire  4 % io_enq_bits [3:0] $end
    $var wire  1 # io_enq_ready $end
    $var wire  1 $ io_enq_valid $end
    $var wire  1 * io_flush $end
    $var wire  1 F maybe_full $end
    $var wire  1 L ptr_diff $end
    $var wire  1 G ptr_match $end
    $var wire  4 A ram[0] [3:0] $end
    $var wire  4 B ram[1] [3:0] $end
    $var wire  1 D ram_MPORT_addr $end
    $var wire  4 % ram_MPORT_data [3:0] $end
    $var wire  1 E ram_MPORT_en $end
    $var wire  1 O ram_MPORT_mask $end
    $var wire  1 C ram_io_deq_bits_MPORT_addr $end
    $var wire  4 ( ram_io_deq_bits_MPORT_data [3:0] $end
    $var wire  1 O ram_io_deq_bits_MPORT_en $end
    $var wire  1 N reset $end
   $upscope $end
   $scope module q_io_deq_ready_prng $end
    $var wire  1 M clock $end
    $var wire  1 + io_out_0 $end
    $var wire  1 , io_out_1 $end
    $var wire  1 5 io_out_10 $end
    $var wire  1 6 io_out_11 $end
    $var wire  1 7 io_out_12 $end
    $var wire  1 8 io_out_13 $end
    $var wire  1 9 io_out_14 $end
    $var wire  1 : io_out_15 $end
    $var wire  1 - io_out_2 $end
    $var wire  1 . io_out_3 $end
    $var wire  1 / io_out_4 $end
    $var wire  1 0 io_out_5 $end
    $var wire  1 1 io_out_6 $end
    $var wire  1 2 io_out_7 $end
    $var wire  1 3 io_out_8 $end
    $var wire  1 4 io_out_9 $end
    $var wire  1 N reset $end
    $var wire  1 + state_0 $end
    $var wire  1 , state_1 $end
    $var wire  1 5 state_10 $end
    $var wire  1 6 state_11 $end
    $var wire  1 7 state_12 $end
    $var wire  1 8 state_13 $end
    $var wire  1 9 state_14 $end
    $var wire  1 : state_15 $end
    $var wire  1 - state_2 $end
    $var wire  1 . state_3 $end
    $var wire  1 / state_4 $end
    $var wire  1 0 state_5 $end
    $var wire  1 1 state_6 $end
    $var wire  1 2 state_7 $end
    $var wire  1 3 state_8 $end
    $var wire  1 4 state_9 $end
   $upscope $end
  $upscope $end
 $upscope $end
$enddefinitions $end


#0
1#
1$
b0011 %
0&
0'
b0000 (
b00 )
0*
0+
0,
0-
0.
0/
00
01
02
03
04
05
06
07
08
09
0:
b00000 ;
b00000 <
b000 =
0>
b00000000 ?
0@
b0000 A
b0000 B
0C
0D
1E
0F
1G
1H
0I
1J
0K
0L
0M
1N
1O
#1
1&
b0011 (
1+
b00000001 ?
b0011 A
1M
#2
#3
#4
#5
#6
0M
#7
#8
#9
#10
0N
#11
b1000 %
0&
1'
b01 )
0+
1,
b00001 ;
b001 =
b00000010 ?
1D
1F
0G
0H
1L
1M
#12
#13
#14
#15
#16
0M
#17
#18
#19
#20
#21
0#
b0001 %
b10 )
1*
0,
1-
b00010 ;
b010 =
b00000100 ?
b1000 B
0D
0E
1G
1I
0J
0L
1M
#22
#23
#24
#25
#26
0M
#27
#28
#29
#30
#31
1#
0'
b00 )
0*
0-
1.
b00010 <
b000 =
1>
b00001000 ?
1E
0F
1H
0I
1J
1M
#32
#33
#34
#35
#36
0M
#37
#38
#39
#40
#41
b0110 %
1'
b0001 (
b01 )
0.
1/
b00011 ;
b001 =
0>
b00010000 ?
b0001 A
1D
1F
0G
0H
1L
1M
#42
#43
#44
#45
#46
0M
#47
#48
#49
#50
#51
0#
b0011 %
b10 )
1*
0/
10
b00100 ;
b010 =
b00100000 ?
b0110 B
0D
0E
1G
1I
0J
0L
1M
#52
#53
#54
#55
#56
0M
#57
#58
#59
#60
#61
1#
0'
b00 )
0*
00
11
b00100 <
b000 =
1>
b01000000 ?
1E
0F
1H
0I
1J
1M
#62
#63
#64
#65
#66
0M
#67
#68
#69
#70
#71
b1101 %
1'
b0011 (
b01 )
01
12
b00101 ;
b001 =
0>
b10000000 ?
b0011 A
1D
1F
0G
0H
1L
1M
#72
#73
#74
#75
#76
0M
#77
#78
#79
#80
#81
0#
b10 )
1*
02
13
b00110 ;
b010 =
b00000000 ?
b1101 B
0D
0E
1G
1I
0J
0L
1M
#82
#83
#84
#85
#86
0M
#87
#88
#89
#90
#91
1#
0'
b00 )
0*
03
14
b00110 <
b000 =
1>
1E
0F
1H
0I
1J
1M
#92
#93
#94
#95
#96
0M
#97
#98
#99
#100
#101
b0000 %
1'
b1101 (
b01 )
04
15
b00111 ;
b001 =
0>
b1101 A
1D
1F
0G
0H
1L
1M
#102
#103
#104
#105
#106
0M
#107
#108
#109
#110
#111
0#
b1100 %
1&
b10 )
1*
1+
05
16
b01000 ;
b010 =
b00000001 ?
b0000 B
0D
0E
1G
1I
0J
1K
0L
1M
#112
#113
#114
#115
#116
0M
#117
#118
#119
#120
#121
1#
0&
0'
b00 )
0*
0+
1,
06
17
b01000 <
b000 =
1>
b00000010 ?
1E
0F
1H
0I
1J
0K
1M
#122
#123
#124
#125
#126
0M
#127
#128
#129
#130
#131
b0111 %
1&
1'
b1100 (
b01 )
1+
0,
1-
07
18
b01001 ;
b001 =
0>
b00000101 ?
b1100 A
1D
1F
0G
0H
1K
1L
1M
#132
#133
#134
#135
#136
0M
#137
#138
#139
#140
#141
b1101 %
b0111 (
1,
0-
1.
08
19
b01010 ;
b01001 <
b000 =
b00001011 ?
b0111 B
1C
0D
1M
#142
#143
#144
#145
#146
0M
#147
#148
#149
#150
#151
0&
b1101 (
0+
1-
0.
1/
09
1:
b01011 ;
b01010 <
b001 =
b00010110 ?
b1101 A
0C
1D
0K
1M
#152
#153
#154
#155
#156
0M
#157
#158
#159
#160
#161
0#
b1010 %
1&
b10 )
1*
1+
0,
1.
0/
10
0:
b01100 ;
b010 =
b00101101 ?
b1101 B
0D
0E
1G
1I
0J
1K
0L
1M
#162
#163
#164
#165
#166
0M
#167
#168
#169
#170
#171
1#
0&
0'
b00 )
0*
0+
1,
0-
1/
00
11
b01100 <
b000 =
1>
b01011010 ?
1E
0F
1H
0I
1J
0K
1M
#172
#173
#174
#175
#176
0M
#177
#178
#179
#180
#181
b0101 %
1'
b1010 (
b01 )
0,
1-
0.
10
01
12
b01101 ;
b001 =
0>
b10110100 ?
b1010 A
1D
1F
0G
0H
1L
1M
#182
#183
#184
#185
#186
0M
#187
#188
#189
#190
#191
0#
b0111 %
b10 )
1*
0-
1.
0/
11
02
13
b01110 ;
b010 =
b01101000 ?
b0101 B
0D
0E
1G
1I
0J
0L
1M
#192
#193
#194
#195
#196
0M
#197
#198
#199
#200
#201
1#
0'
b00 )
0*
0.
1/
00
12
03
14
b01110 <
b000 =
1>
b11010000 ?
1E
0F
1H
0I
1J
1M
#202
#203
#204
#205
#206
0M
#207
#208
#209
#210
#211
b0000 %
1'
b0111 (
b01 )
0/
10
01
13
04
15
b01111 ;
b001 =
0>
b10100000 ?
b0111 A
1D
1F
0G
0H
1L
1M
#212
#213
#214
#215
#216
0M
#217
#218
#219
#220
#221
0#
b0101 %
1&
b10 )
1*
1+
00
11
02
14
05
16
b10000 ;
b010 =
b01000001 ?
b0000 B
0D
0E
1G
1I
0J
1K
0L
1M
#222
#223
#224
#225
#226
0M
#227
#228
#229
#230
#231
1#
0&
0'
b00 )
0*
0+
1,
01
12
03
15
06
17
b10000 <
b000 =
1>
b10000010 ?
1E
0F
1H
0I
1J
0K
1M
#232
#233
#234
#235
#236
0M
#237
#238
#239
#240
#241
b1111 %
1'
b0101 (
b01 )
0,
1-
02
13
04
16
07
18
b10001 ;
b001 =
0>
b00000100 ?
b0101 A
1D
1F
0G
0H
1L
1M
#242
#243
#244
#245
#246
0M
#247
#248
#249
#250
#251
0#
b0000 %
b10 )
1*
0-
1.
03
14
05
17
08
19
b10010 ;
b010 =
b00001000 ?
b1111 B
0D
0E
1G
1I
0J
0L
1M
#252
#253
#254
#255
#256
0M
#257
#258
#259
#260
#261
1#
1&
0'
b00 )
0*
1+
0.
1/
04
15
06
18
09
1:
b10010 <
b000 =
1>
b00010001 ?
1E
0F
1H
0I
1J
1M
#262
#263
#264
#265
#266
0M
#267
#268
#269
#270
#271
b0111 %
0&
1'
b0000 (
b01 )
0+
1,
0/
10
05
16
07
19
0:
b10011 ;
b001 =
0>
b00100010 ?
b0000 A
1D
1F
0G
0H
1L
1M
#272
#273
#274
#275
#276
0M
#277
#278
#279
#280
#281
0#
0$
b0011 %
1&
b10 )
1*
1+
0,
1-
00
11
06
17
08
1:
b10100 ;
b010 =
b01000101 ?
1@
b0111 B
0D
0E
1G
1I
0J
1K
0L
1M
