chisel3/test_run_dir/ParameterizedVendingMachineTester/202203291448263528682829354430425/dump.vcd
$version Generated by VerilatedVcd $end
$date Tue Mar 29 14:48:43 2022 $end
$timescale 1ps $end

 $scope module TOP $end
  $var wire  1 , clock $end
  $var wire  1 - reset $end
  $scope module ParameterizedVendingMachineTester $end
   $var wire  1 , clock $end
   $var wire  1 , dut_clock $end
   $var wire  1 ' dut_io_dispense $end
   $var wire  1 # dut_io_inputs_0 $end
   $var wire  1 $ dut_io_inputs_1 $end
   $var wire  1 % dut_io_inputs_2 $end
   $var wire  1 & dut_io_inputs_3 $end
   $var wire  1 - dut_reset $end
   $var wire  7 ( idx [6:0] $end
   $var wire  1 - reset $end
   $var wire  1 ) wrap_wrap $end
   $scope module dut $end
    $var wire  1 , clock $end
    $var wire  1 ' doDispense $end
    $var wire  8 + incValue [7:0] $end
    $var wire  1 ' io_dispense $end
    $var wire  1 # io_inputs_0 $end
    $var wire  1 $ io_inputs_1 $end
    $var wire  1 % io_inputs_2 $end
    $var wire  1 & io_inputs_3 $end
    $var wire  1 - reset $end
    $var wire  8 * value [7:0] $end
   $upscope $end
  $upscope $end
 $upscope $end
$enddefinitions $end


#0
0#
0$
0%
0&
0'
b0000000 (
0)
b00000000 *
b00000000 +
0,
1-
#1
1,
#2
#3
#4
#5
#6
0,
#7
#8
#9
#10
0-
#11
1$
b0000001 (
b00000101 +
1,
#12
#13
#14
#15
#16
0,
#17
#18
#19
#20
#21
1#
0$
b0000010 (
b00000101 *
b00000001 +
1,
#22
#23
#24
#25
#26
0,
#27
#28
#29
#30
#31
0#
1$
b0000011 (
b00000110 *
b00000101 +
1,
#32
#33
#34
#35
#36
0,
#37
#38
#39
#40
#41
0$
1%
b0000100 (
b00001011 *
b00001010 +
1,
#42
#43
#44
#45
#46
0,
#47
#48
#49
#50
#51
1$
0%
b0000101 (
b00010101 *
b00000101 +
1,
#52
#53
#54
#55
#56
0,
#57
#58
#59
#60
#61
0$
1%
b0000110 (
b00011010 *
b00001010 +
1,
#62
#63
#64
#65
#66
0,
#67
#68
#69
#70
#71
1#
0%
b0000111 (
b00100100 *
b00000001 +
1,
#72
#73
#74
#75
#76
0,
#77
#78
#79
#80
#81
0#
1%
b0001000 (
b00100101 *
b00001010 +
1,
#82
#83
#84
#85
#86
0,
#87
#88
#89
#90
#91
b0001001 (
b00101111 *
1,
#92
#93
#94
#95
#96
0,
#97
#98
#99
#100
#101
0%
b0001010 (
b00111001 *
b00000000 +
1,
#102
#103
#104
#105
#106
0,
#107
#108
#109
#110
#111
1$
b0001011 (
b00000101 +
1,
#112
#113
#114
#115
#116
0,
#117
#118
#119
#120
#121
b0001100 (
b00111110 *
1,
#122
#123
#124
#125
#126
0,
#127
#128
#129
#130
#131
b0001101 (
b01000011 *
1,
#132
#133
#134
#135
#136
0,
#137
#138
#139
#140
#141
0$
b0001110 (
b01001000 *
b00000000 +
1,
#142
#143
#144
#145
#146
0,
#147
#148
#149
#150
#151
1#
b0001111 (
b00000001 +
1,
#152
#153
#154
#155
#156
0,
#157
#158
#159
#160
#161
0#
1&
b0010000 (
b01001001 *
b00011001 +
1,
#162
#163
#164
#165
#166
0,
#167
#168
#169
#170
#171
b0010001 (
b01100010 *
1,
#172
#173
#174
#175
#176
0,
#177
#178
#179
#180
#181
0&
b0010010 (
b01111011 *
b00000000 +
1,
#182
#183
#184
#185
#186
0,
#187
#188
#189
#190
#191
1&
b0010011 (
b00011001 +
1,
#192
#193
#194
#195
#196
0,
#197
#198
#199
#200
#201
1%
0&
b0010100 (
b10010100 *
b00001010 +
1,
#202
#203
#204
#205
#206
0,
#207
#208
#209
#210
#211
1$
0%
1'
b0010101 (
b10011110 *
b00000101 +
1,
#212
#213
#214
#215
#216
0,
#217
#218
#219
#220
#221
1#
0$
0'
b0010110 (
b00000000 *
b00000001 +
1,
#222
#223
#224
#225
#226
0,
#227
#228
#229
#230
#231
0#
b0010111 (
b00000001 *
b00000000 +
1,
#232
#233
#234
#235
#236
0,
#237
#238
#239
#240
#241
1&
b0011000 (
b00011001 +
1,
#242
#243
#244
#245
#246
0,
#247
#248
#249
#250
#251
b0011001 (
b00011010 *
1,
#252
#253
#254
#255
#256
0,
#257
#258
#259
#260
#261
0&
b0011010 (
b00110011 *
b00000000 +
1,
#262
#263
#264
#265
#266
0,
#267
#268
#269
#270
#271
1#
b0011011 (
b00000001 +
1,
#272
#273
#274
#275
#276
0,
#277
#278
#279
#280
#281
0#
1&
b0011100 (
b00110100 *
b00011001 +
1,
#282
#283
#284
#285
#286
0,
#287
#288
#289
#290
#291
0&
b0011101 (
b01001101 *
b00000000 +
1,
#292
#293
#294
#295
#296
0,
#297
#298
#299
#300
#301
b0011110 (
1,
#302
#303
#304
#305
#306
0,
#307
#308
#309
#310
#311
1#
b0011111 (
b00000001 +
1,
#312
#313
#314
#315
#316
0,
#317
#318
#319
#320
#321
b0100000 (
b01001110 *
1,
#322
#323
#324
#325
#326
0,
#327
#328
#329
#330
#331
0#
1$
b0100001 (
b01001111 *
b00000101 +
1,
#332
#333
#334
#335
#336
0,
#337
#338
#339
#340
#341
0$
1&
b0100010 (
b01010100 *
b00011001 +
1,
#342
#343
#344
#345
#346
0,
#347
#348
#349
#350
#351
1%
0&
b0100011 (
b01101101 *
b00001010 +
1,
#352
#353
#354
#355
#356
0,
#357
#358
#359
#360
#361
0%
1&
b0100100 (
b01110111 *
b00011001 +
1,
#362
#363
#364
#365
#366
0,
#367
#368
#369
#370
#371
1%
0&
b0100101 (
b10010000 *
b00001010 +
1,
#372
#373
#374
#375
#376
0,
#377
#378
#379
#380
#381
1$
0%
1'
b0100110 (
b10011010 *
b00000101 +
1,
#382
#383
#384
#385
#386
0,
#387
#388
#389
#390
#391
1#
0$
0'
b0100111 (
b00000000 *
b00000001 +
1,
#392
#393
#394
#395
#396
0,
#397
#398
#399
#400
#401
b0101000 (
b00000001 *
1,
#402
#403
#404
#405
#406
0,
#407
#408
#409
#410
#411
0#
b0101001 (
b00000010 *
b00000000 +
1,
#412
#413
#414
#415
#416
0,
#417
#418
#419
#420
#421
b0101010 (
1,
#422
#423
#424
#425
#426
0,
#427
#428
#429
#430
#431
b0101011 (
1,
#432
#433
#434
#435
#436
0,
#437
#438
#439
#440
#441
1&
b0101100 (
b00011001 +
1,
#442
#443
#444
#445
#446
0,
#447
#448
#449
#450
#451
1$
0&
b0101101 (
b00011011 *
b00000101 +
1,
#452
#453
#454
#455
#456
0,
#457
#458
#459
#460
#461
0$
1%
b0101110 (
b00100000 *
b00001010 +
1,
#462
#463
#464
#465
#466
0,
#467
#468
#469
#470
#471
0%
b0101111 (
b00101010 *
b00000000 +
1,
#472
#473
#474
#475
#476
0,
#477
#478
#479
#480
#481
b0110000 (
1,
#482
#483
#484
#485
#486
0,
#487
#488
#489
#490
#491
b0110001 (
1,
#492
#493
#494
#495
#496
0,
#497
#498
#499
#500
#501
b0110010 (
1,
#502
#503
#504
#505
#506
0,
#507
#508
#509
#510
#511
1$
b0110011 (
b00000101 +
1,
#512
#513
#514
#515
#516
0,
#517
#518
#519
#520
#521
0$
1&
b0110100 (
b00101111 *
b00011001 +
1,
#522
#523
#524
#525
#526
0,
#527
#528
#529
#530
#531
1$
0&
b0110101 (
b01001000 *
b00000101 +
1,
#532
#533
#534
#535
#536
0,
#537
#538
#539
#540
#541
0$
b0110110 (
b01001101 *
b00000000 +
1,
#542
#543
#544
#545
#546
0,
#547
#548
#549
#550
#551
1&
b0110111 (
b00011001 +
1,
#552
#553
#554
#555
#556
0,
#557
#558
#559
#560
#561
1$
0&
b0111000 (
b01100110 *
b00000101 +
1,
#562
#563
#564
#565
#566
0,
#567
#568
#569
#570
#571
1#
0$
b0111001 (
b01101011 *
b00000001 +
1,
#572
#573
#574
#575
#576
0,
#577
#578
#579
#580
#581
0#
1$
b0111010 (
b01101100 *
b00000101 +
1,
#582
#583
#584
#585
#586
0,
#587
#588
#589
#590
#591
0$
1%
b0111011 (
b01110001 *
b00001010 +
1,
#592
#593
#594
#595
#596
0,
#597
#598
#599
#600
#601
1$
0%
b0111100 (
b01111011 *
b00000101 +
1,
#602
#603
#604
#605
#606
0,
#607
#608
#609
#610
#611
b0111101 (
b10000000 *
1,
#612
#613
#614
#615
#616
0,
#617
#618
#619
#620
#621
1#
0$
b0111110 (
b10000101 *
b00000001 +
1,
#622
#623
#624
#625
#626
0,
#627
#628
#629
#630
#631
0#
1&
b0111111 (
b10000110 *
b00011001 +
1,
#632
#633
#634
#635
#636
0,
#637
#638
#639
#640
#641
1#
0&
1'
b1000000 (
b10011111 *
b00000001 +
1,
#642
#643
#644
#645
#646
0,
#647
#648
#649
#650
#651
0'
b1000001 (
b00000000 *
1,
#652
#653
#654
#655
#656
0,
#657
#658
#659
#660
#661
0#
b1000010 (
b00000001 *
b00000000 +
1,
#662
#663
#664
#665
#666
0,
#667
#668
#669
#670
#671
1&
b1000011 (
b00011001 +
1,
#672
#673
#674
#675
#676
0,
#677
#678
#679
#680
#681
0&
b1000100 (
b00011010 *
b00000000 +
1,
#682
#683
#684
#685
#686
0,
#687
#688
#689
#690
#691
1%
b1000101 (
b00001010 +
1,
#692
#693
#694
#695
#696
0,
#697
#698
#699
#700
#701
1$
0%
b1000110 (
b00100100 *
b00000101 +
1,
#702
#703
#704
#705
#706
0,
#707
#708
#709
#710
#711
0$
1%
b1000111 (
b00101001 *
b00001010 +
1,
#712
#713
#714
#715
#716
0,
#717
#718
#719
#720
#721
b1001000 (
b00110011 *
1,
#722
#723
#724
#725
#726
0,
#727
#728
#729
#730
#731
1$
0%
b1001001 (
b00111101 *
b00000101 +
1,
#732
#733
#734
#735
#736
0,
#737
#738
#739
#740
#741
1#
0$
b1001010 (
b01000010 *
b00000001 +
1,
#742
#743
#744
#745
#746
0,
#747
#748
#749
#750
#751
0#
1%
b1001011 (
b01000011 *
b00001010 +
1,
#752
#753
#754
#755
#756
0,
#757
#758
#759
#760
#761
b1001100 (
b01001101 *
1,
#762
#763
#764
#765
#766
0,
#767
#768
#769
#770
#771
0%
1&
b1001101 (
b01010111 *
b00011001 +
1,
#772
#773
#774
#775
#776
0,
#777
#778
#779
#780
#781
1#
0&
b1001110 (
b01110000 *
b00000001 +
1,
#782
#783
#784
#785
#786
0,
#787
#788
#789
#790
#791
b1001111 (
b01110001 *
1,
#792
#793
#794
#795
#796
0,
#797
#798
#799
#800
#801
b1010000 (
b01110010 *
1,
#802
#803
#804
#805
#806
0,
#807
#808
#809
#810
#811
0#
1&
b1010001 (
b01110011 *
b00011001 +
1,
#812
#813
#814
#815
#816
0,
#817
#818
#819
#820
#821
b1010010 (
b10001100 *
1,
#822
#823
#824
#825
#826
0,
#827
#828
#829
#830
#831
0&
1'
b1010011 (
b10100101 *
b00000000 +
1,
#832
#833
#834
#835
#836
0,
#837
#838
#839
#840
#841
1$
0'
b1010100 (
b00000000 *
b00000101 +
1,
#842
#843
#844
#845
#846
0,
#847
#848
#849
#850
#851
0$
b1010101 (
b00000101 *
b00000000 +
1,
#852
#853
#854
#855
#856
0,
#857
#858
#859
#860
#861
1&
b1010110 (
b00011001 +
1,
#862
#863
#864
#865
#866
0,
#867
#868
#869
#870
#871
b1010111 (
b00011110 *
1,
#872
#873
#874
#875
#876
0,
#877
#878
#879
#880
#881
0&
b1011000 (
b00110111 *
b00000000 +
1,
#882
#883
#884
#885
#886
0,
#887
#888
#889
#890
#891
1%
b1011001 (
b00001010 +
1,
#892
#893
#894
#895
#896
0,
#897
#898
#899
#900
#901
1#
0%
b1011010 (
b01000001 *
b00000001 +
1,
#902
#903
#904
#905
#906
0,
#907
#908
#909
#910
#911
0#
1&
b1011011 (
b01000010 *
b00011001 +
1,
#912
#913
#914
#915
#916
0,
#917
#918
#919
#920
#921
b1011100 (
b01011011 *
1,
#922
#923
#924
#925
#926
0,
#927
#928
#929
#930
#931
b1011101 (
b01110100 *
1,
#932
#933
#934
#935
#936
0,
#937
#938
#939
#940
#941
1$
0&
b1011110 (
b10001101 *
b00000101 +
1,
#942
#943
#944
#945
#946
0,
#947
#948
#949
#950
#951
b1011111 (
b10010010 *
1,
#952
#953
#954
#955
#956
0,
#957
#958
#959
#960
#961
1'
b1100000 (
b10010111 *
1,
#962
#963
#964
#965
#966
0,
#967
#968
#969
#970
#971
0$
1%
0'
b1100001 (
b00000000 *
b00001010 +
1,
#972
#973
#974
#975
#976
0,
#977
#978
#979
#980
#981
1#
0%
b1100010 (
b00001010 *
b00000001 +
1,
#982
#983
#984
#985
#986
0,
#987
#988
#989
#990
#991
0#
1%
b1100011 (
b00001011 *
b00001010 +
1,
#992
#993
#994
#995
#996
0,
#997
#998
#999
#1000
#1001
0%
b1100100 (
1)
b00010101 *
b00000000 +
1,
