chisel3/test_run_dir/LFSRMaxPeriod/202203291500111863461200126570602/dump.vcd
$version Generated by VerilatedVcd $end
$date Tue Mar 29 15:00:27 2022 $end
$timescale 1ps $end

 $scope module TOP $end
  $var wire  1 0 clock $end
  $var wire  1 1 reset $end
  $scope module LFSRMaxPeriod $end
   $var wire  1 0 clock $end
   $var wire  4 / last [3:0] $end
   $var wire  1 1 reset $end
   $var wire  4 ) rv [3:0] $end
   $var wire  2 ( rv_hi [1:0] $end
   $var wire  2 ' rv_lo [1:0] $end
   $var wire  1 0 rv_prng_clock $end
   $var wire  1 # rv_prng_io_out_0 $end
   $var wire  1 $ rv_prng_io_out_1 $end
   $var wire  1 % rv_prng_io_out_2 $end
   $var wire  1 & rv_prng_io_out_3 $end
   $var wire  1 1 rv_prng_reset $end
   $var wire  4 + seed [3:0] $end
   $var wire  1 * started $end
   $var wire  1 . wrap $end
   $var wire  4 , wrap_value [3:0] $end
   $var wire  1 - wrap_wrap_wrap $end
   $scope module rv_prng $end
    $var wire  1 0 clock $end
    $var wire  1 # io_out_0 $end
    $var wire  1 $ io_out_1 $end
    $var wire  1 % io_out_2 $end
    $var wire  1 & io_out_3 $end
    $var wire  1 1 reset $end
    $var wire  1 # state_0 $end
    $var wire  1 $ state_1 $end
    $var wire  1 % state_2 $end
    $var wire  1 & state_3 $end
   $upscope $end
  $upscope $end
 $upscope $end
$enddefinitions $end


#0
0#
0$
0%
0&
b00 '
b00 (
b0000 )
0*
b0000 +
b0000 ,
0-
0.
b0000 /
00
11
#1
1#
b01 '
b0001 )
10
#2
#3
#4
#5
#6
00
#7
#8
#9
#10
01
#11
0#
1$
b10 '
b0010 )
1*
b0001 +
b0001 /
10
#12
#13
#14
#15
#16
00
#17
#18
#19
#20
#21
0$
1%
b00 '
b01 (
b0100 )
b0001 ,
b0010 /
10
#22
#23
#24
#25
#26
00
#27
#28
#29
#30
#31
1#
0%
1&
b01 '
b10 (
b1001 )
b0010 ,
b0100 /
10
#32
#33
#34
#35
#36
00
#37
#38
#39
#40
#41
1$
0&
b11 '
b00 (
b0011 )
b0011 ,
b1001 /
10
#42
#43
#44
#45
#46
00
#47
#48
#49
#50
#51
0#
1%
b10 '
b01 (
b0110 )
b0100 ,
b0011 /
10
#52
#53
#54
#55
#56
00
#57
#58
#59
#60
#61
1#
0$
1&
b01 '
b11 (
b1101 )
b0101 ,
b0110 /
10
#62
#63
#64
#65
#66
00
#67
#68
#69
#70
#71
0#
1$
0%
b10 '
b10 (
b1010 )
b0110 ,
b1101 /
10
#72
#73
#74
#75
#76
00
#77
#78
#79
#80
#81
1#
0$
1%
0&
b01 '
b01 (
b0101 )
b0111 ,
b1010 /
10
#82
#83
#84
#85
#86
00
#87
#88
#89
#90
#91
1$
0%
1&
b11 '
b10 (
b1011 )
b1000 ,
b0101 /
10
#92
#93
#94
#95
#96
00
#97
#98
#99
#100
#101
1%
0&
b01 (
b0111 )
b1001 ,
b1011 /
10
#102
#103
#104
#105
#106
00
#107
#108
#109
#110
#111
1&
b11 (
b1111 )
b1010 ,
b0111 /
10
#112
#113
#114
#115
#116
00
#117
#118
#119
#120
#121
0#
b10 '
b1110 )
b1011 ,
b1111 /
10
#122
#123
#124
#125
#126
00
#127
#128
#129
#130
#131
0$
b00 '
b1100 )
b1100 ,
b1110 /
10
#132
#133
#134
#135
#136
00
#137
#138
#139
#140
#141
0%
b10 (
b1000 )
b1101 ,
b1100 /
10
#142
#143
#144
#145
#146
00
#147
#148
#149
#150
#151
1#
0&
b01 '
b00 (
b0001 )
b1110 ,
1-
1.
b1000 /
10
