chisel3/test_run_dir/EnableTester/202203291442118050213528201915285/dump.vcd
$version Generated by VerilatedVcd $end
$date Tue Mar 29 14:42:28 2022 $end
$timescale 1ps $end

 $scope module TOP $end
  $var wire  1 ' clock $end
  $var wire  1 ( reset $end
  $scope module EnableTester $end
   $var wire  1 ' clock $end
   $var wire  5 $ cntEnVal [4:0] $end
   $var wire  6 % done_value [5:0] $end
   $var wire  1 & done_wrap_wrap $end
   $var wire 28 # ens [27:0] $end
   $var wire  1 ( reset $end
  $upscope $end
 $upscope $end
$enddefinitions $end


#0
b0000000000000000000000000000 #
b00000 $
b000000 %
0&
0'
1(
#1
b1111111010001010100100100011 #
1'
#2
#3
#4
#5
#6
0'
#7
#8
#9
#10
0(
#11
b0111111101000101010010010001 #
b00001 $
b000001 %
1'
#12
#13
#14
#15
#16
0'
#17
#18
#19
#20
#21
b0011111110100010101001001000 #
b00010 $
b000010 %
1'
#22
#23
#24
#25
#26
0'
#27
#28
#29
#30
#31
b0001111111010001010100100100 #
b000011 %
1'
#32
#33
#34
#35
#36
0'
#37
#38
#39
#40
#41
b0000111111101000101010010010 #
b000100 %
1'
#42
#43
#44
#45
#46
0'
#47
#48
#49
#50
#51
b0000011111110100010101001001 #
b000101 %
1'
#52
#53
#54
#55
#56
0'
#57
#58
#59
#60
#61
b0000001111111010001010100100 #
b00011 $
b000110 %
1'
#62
#63
#64
#65
#66
0'
#67
#68
#69
#70
#71
b0000000111111101000101010010 #
b000111 %
1'
#72
#73
#74
#75
#76
0'
#77
#78
#79
#80
#81
b0000000011111110100010101001 #
b001000 %
1'
#82
#83
#84
#85
#86
0'
#87
#88
#89
#90
#91
b0000000001111111010001010100 #
b00100 $
b001001 %
1'
#92
#93
#94
#95
#96
0'
#97
#98
#99
#100
#101
b0000000000111111101000101010 #
b001010 %
1'
#102
#103
#104
#105
#106
0'
#107
#108
#109
#110
#111
b0000000000011111110100010101 #
b001011 %
1'
#112
#113
#114
#115
#116
0'
#117
#118
#119
#120
#121
b0000000000001111111010001010 #
b00101 $
b001100 %
1'
#122
#123
#124
#125
#126
0'
#127
#128
#129
#130
#131
b0000000000000111111101000101 #
b001101 %
1'
#132
#133
#134
#135
#136
0'
#137
#138
#139
#140
#141
b0000000000000011111110100010 #
b00110 $
b001110 %
1'
#142
#143
#144
#145
#146
0'
#147
#148
#149
#150
#151
b0000000000000001111111010001 #
b001111 %
1'
#152
#153
#154
#155
#156
0'
#157
#158
#159
#160
#161
b0000000000000000111111101000 #
b00111 $
b010000 %
1'
#162
#163
#164
#165
#166
0'
#167
#168
#169
#170
#171
b0000000000000000011111110100 #
b010001 %
1'
#172
#173
#174
#175
#176
0'
#177
#178
#179
#180
#181
b0000000000000000001111111010 #
b010010 %
1'
#182
#183
#184
#185
#186
0'
#187
#188
#189
#190
#191
b0000000000000000000111111101 #
b010011 %
1'
#192
#193
#194
#195
#196
0'
#197
#198
#199
#200
#201
b0000000000000000000011111110 #
b01000 $
b010100 %
1'
#202
#203
#204
#205
#206
0'
#207
#208
#209
#210
#211
b0000000000000000000001111111 #
b010101 %
1'
#212
#213
#214
#215
#216
0'
#217
#218
#219
#220
#221
b0000000000000000000000111111 #
b01001 $
b010110 %
1'
#222
#223
#224
#225
#226
0'
#227
#228
#229
#230
#231
b0000000000000000000000011111 #
b01010 $
b010111 %
1'
#232
#233
#234
#235
#236
0'
#237
#238
#239
#240
#241
b0000000000000000000000001111 #
b01011 $
b011000 %
1'
#242
#243
#244
#245
#246
0'
#247
#248
#249
#250
#251
b0000000000000000000000000111 #
b01100 $
b011001 %
1'
#252
#253
#254
#255
#256
0'
#257
#258
#259
#260
#261
b0000000000000000000000000011 #
b01101 $
b011010 %
1'
#262
#263
#264
#265
#266
0'
#267
#268
#269
#270
#271
b0000000000000000000000000001 #
b01110 $
b011011 %
1'
#272
#273
#274
#275
#276
0'
#277
#278
#279
#280
#281
b0000000000000000000000000000 #
b01111 $
b011100 %
1'
#282
#283
#284
#285
#286
0'
#287
#288
#289
#290
#291
b011101 %
1'
#292
#293
#294
#295
#296
0'
#297
#298
#299
#300
#301
b011110 %
1'
#302
#303
#304
#305
#306
0'
#307
#308
#309
#310
#311
b011111 %
1'
#312
#313
#314
#315
#316
0'
#317
#318
#319
#320
#321
b100000 %
1&
1'
