chisel3/test_run_dir/LFSRMaxPeriod/202203291509219492212270138425103/dump.vcd
$version Generated by VerilatedVcd $end
$date Tue Mar 29 15:09:39 2022 $end
$timescale 1ps $end

 $scope module TOP $end
  $var wire  1 6 clock $end
  $var wire  1 7 reset $end
  $scope module LFSRMaxPeriod $end
   $var wire  1 6 clock $end
   $var wire 10 5 last [9:0] $end
   $var wire  1 7 reset $end
   $var wire 10 / rv [9:0] $end
   $var wire  5 . rv_hi [4:0] $end
   $var wire  5 - rv_lo [4:0] $end
   $var wire  1 6 rv_prng_clock $end
   $var wire  1 # rv_prng_io_out_0 $end
   $var wire  1 $ rv_prng_io_out_1 $end
   $var wire  1 % rv_prng_io_out_2 $end
   $var wire  1 & rv_prng_io_out_3 $end
   $var wire  1 ' rv_prng_io_out_4 $end
   $var wire  1 ( rv_prng_io_out_5 $end
   $var wire  1 ) rv_prng_io_out_6 $end
   $var wire  1 * rv_prng_io_out_7 $end
   $var wire  1 + rv_prng_io_out_8 $end
   $var wire  1 , rv_prng_io_out_9 $end
   $var wire  1 7 rv_prng_reset $end
   $var wire 10 1 seed [9:0] $end
   $var wire  1 0 started $end
   $var wire  1 4 wrap $end
   $var wire 10 2 wrap_value [9:0] $end
   $var wire  1 3 wrap_wrap_wrap $end
   $scope module rv_prng $end
    $var wire  1 6 clock $end
    $var wire  1 # io_out_0 $end
    $var wire  1 $ io_out_1 $end
    $var wire  1 % io_out_2 $end
    $var wire  1 & io_out_3 $end
    $var wire  1 ' io_out_4 $end
    $var wire  1 ( io_out_5 $end
    $var wire  1 ) io_out_6 $end
    $var wire  1 * io_out_7 $end
    $var wire  1 + io_out_8 $end
    $var wire  1 , io_out_9 $end
    $var wire  1 7 reset $end
    $var wire  1 # state_0 $end
    $var wire  1 $ state_1 $end
    $var wire  1 % state_2 $end
    $var wire  1 & state_3 $end
    $var wire  1 ' state_4 $end
    $var wire  1 ( state_5 $end
    $var wire  1 ) state_6 $end
    $var wire  1 * state_7 $end
    $var wire  1 + state_8 $end
    $var wire  1 , state_9 $end
   $upscope $end
  $upscope $end
 $upscope $end
$enddefinitions $end


#0
0#
0$
0%
0&
0'
0(
0)
0*
0+
0,
b00000 -
b00000 .
b0000000000 /
00
b0000000000 1
b0000000000 2
03
04
b0000000000 5
06
17
#1
1#
b00001 -
b0000000001 /
16
#2
#3
#4
#5
#6
06
#7
#8
#9
#10
07
#11
1$
b00011 -
b0000000011 /
10
b0000000001 1
b0000000001 5
16
#12
#13
#14
#15
#16
06
#17
#18
#19
#20
#21
1%
b00111 -
b0000000111 /
b0000000001 2
b0000000011 5
16
#22
#23
#24
#25
#26
06
#27
#28
#29
#30
#31
1&
b01111 -
b0000001111 /
b0000000010 2
b0000000111 5
16
#32
#33
#34
#35
#36
06
#37
#38
#39
#40
#41
1'
b11111 -
b0000011111 /
b0000000011 2
b0000001111 5
16
#42
#43
#44
#45
#46
06
#47
#48
#49
#50
#51
1(
b00001 .
b0000111111 /
b0000000100 2
b0000011111 5
16
#52
#53
#54
#55
#56
06
#57
#58
#59
#60
#61
0#
1)
b11110 -
b00011 .
b0001111110 /
b0000000101 2
b0000111111 5
16
#62
#63
#64
#65
#66
06
#67
#68
#69
#70
#71
1#
0$
1*
b11101 -
b00111 .
b0011111101 /
b0000000110 2
b0001111110 5
16
#72
#73
#74
#75
#76
06
#77
#78
#79
#80
#81
1$
0%
1+
b11011 -
b01111 .
b0111111011 /
b0000000111 2
b0011111101 5
16
#82
#83
#84
#85
#86
06
#87
#88
#89
#90
#91
0#
1%
0&
1,
b10110 -
b11111 .
b1111110110 /
b0000001000 2
b0111111011 5
16
#92
#93
#94
#95
#96
06
#97
#98
#99
#100
#101
1#
0$
1&
0'
b01101 -
b1111101101 /
b0000001001 2
b1111110110 5
16
#102
#103
#104
#105
#106
06
#107
#108
#109
#110
#111
1$
0%
1'
0(
b11011 -
b11110 .
b1111011011 /
b0000001010 2
b1111101101 5
16
#112
#113
#114
#115
#116
06
#117
#118
#119
#120
#121
0#
1%
0&
1(
0)
b10110 -
b11101 .
b1110110110 /
b0000001011 2
b1111011011 5
16
#122
#123
#124
#125
#126
06
#127
#128
#129
#130
#131
0$
1&
0'
1)
0*
b01100 -
b11011 .
b1101101100 /
b0000001100 2
b1110110110 5
16
#132
#133
#134
#135
#136
06
#137
#138
#139
#140
#141
1#
0%
1'
0(
1*
0+
b11001 -
b10110 .
b1011011001 /
b0000001101 2
b1101101100 5
16
#142
#143
#144
#145
#146
06
#147
#148
#149
#150
#151
1$
0&
1(
0)
1+
0,
b10011 -
b01101 .
b0110110011 /
b0000001110 2
b1011011001 5
16
#152
#153
#154
#155
#156
06
#157
#158
#159
#160
#161
1%
0'
1)
0*
1,
b00111 -
b11011 .
b1101100111 /
b0000001111 2
b0110110011 5
16
#162
#163
#164
#165
#166
06
#167
#168
#169
#170
#171
1&
0(
1*
0+
b01111 -
b10110 .
b1011001111 /
b0000010000 2
b1101100111 5
16
#172
#173
#174
#175
#176
06
#177
#178
#179
#180
#181
1'
0)
1+
0,
b11111 -
b01100 .
b0110011111 /
b0000010001 2
b1011001111 5
16
#182
#183
#184
#185
#186
06
#187
#188
#189
#190
#191
0#
1(
0*
1,
b11110 -
b11001 .
b1100111110 /
b0000010010 2
b0110011111 5
16
#192
#193
#194
#195
#196
06
#197
#198
#199
#200
#201
0$
1)
0+
b11100 -
b10011 .
b1001111100 /
b0000010011 2
b1100111110 5
16
#202
#203
#204
#205
#206
06
#207
#208
#209
#210
#211
0%
1*
0,
b11000 -
b00111 .
b0011111000 /
b0000010100 2
b1001111100 5
16
#212
#213
#214
#215
#216
06
#217
#218
#219
#220
#221
1#
0&
1+
b10001 -
b01111 .
b0111110001 /
b0000010101 2
b0011111000 5
16
#222
#223
#224
#225
#226
06
#227
#228
#229
#230
#231
0#
1$
0'
1,
b00010 -
b11111 .
b1111100010 /
b0000010110 2
b0111110001 5
16
#232
#233
#234
#235
#236
06
#237
#238
#239
#240
#241
1#
0$
1%
0(
b00101 -
b11110 .
b1111000101 /
b0000010111 2
b1111100010 5
16
#242
#243
#244
#245
#246
06
#247
#248
#249
#250
#251
0#
1$
0%
1&
0)
b01010 -
b11100 .
b1110001010 /
b0000011000 2
b1111000101 5
16
#252
#253
#254
#255
#256
06
#257
#258
#259
#260
#261
1#
0$
1%
0&
1'
0*
b10101 -
b11000 .
b1100010101 /
b0000011001 2
b1110001010 5
16
#262
#263
#264
#265
#266
06
#267
#268
#269
#270
#271
1$
0%
1&
0'
1(
0+
b01011 -
b10001 .
b1000101011 /
b0000011010 2
b1100010101 5
16
#272
#273
#274
#275
#276
06
#277
#278
#279
#280
#281
1%
0&
1'
0(
1)
0,
b10111 -
b00010 .
b0001010111 /
b0000011011 2
b1000101011 5
16
#282
#283
#284
#285
#286
06
#287
#288
#289
#290
#291
0#
1&
0'
1(
0)
1*
b01110 -
b00101 .
b0010101110 /
b0000011100 2
b0001010111 5
16
#292
#293
#294
#295
#296
06
#297
#298
#299
#300
#301
0$
1'
0(
1)
0*
1+
b11100 -
b01010 .
b0101011100 /
b0000011101 2
b0010101110 5
16
#302
#303
#304
#305
#306
06
#307
#308
#309
#310
#311
1#
0%
1(
0)
1*
0+
1,
b11001 -
b10101 .
b1010111001 /
b0000011110 2
b0101011100 5
16
#312
#313
#314
#315
#316
06
#317
#318
#319
#320
#321
1$
0&
1)
0*
1+
0,
b10011 -
b01011 .
b0101110011 /
b0000011111 2
b1010111001 5
16
#322
#323
#324
#325
#326
06
#327
#328
#329
#330
#331
0#
1%
0'
1*
0+
1,
b00110 -
b10111 .
b1011100110 /
b0000100000 2
b0101110011 5
16
#332
#333
#334
#335
#336
06
#337
#338
#339
#340
#341
0$
1&
0(
1+
0,
b01100 -
b01110 .
b0111001100 /
b0000100001 2
b1011100110 5
16
#342
#343
#344
#345
#346
06
#347
#348
#349
#350
#351
1#
0%
1'
0)
1,
b11001 -
b11100 .
b1110011001 /
b0000100010 2
b0111001100 5
16
#352
#353
#354
#355
#356
06
#357
#358
#359
#360
#361
1$
0&
1(
0*
b10011 -
b11001 .
b1100110011 /
b0000100011 2
b1110011001 5
16
#362
#363
#364
#365
#366
06
#367
#368
#369
#370
#371
0#
1%
0'
1)
0+
b00110 -
b10011 .
b1001100110 /
b0000100100 2
b1100110011 5
16
#372
#373
#374
#375
#376
06
#377
#378
#379
#380
#381
0$
1&
0(
1*
0,
b01100 -
b00110 .
b0011001100 /
b0000100101 2
b1001100110 5
16
#382
#383
#384
#385
#386
06
#387
#388
#389
#390
#391
0%
1'
0)
1+
b11000 -
b01100 .
b0110011000 /
b0000100110 2
b0011001100 5
16
#392
#393
#394
#395
#396
06
#397
#398
#399
#400
#401
0&
1(
0*
1,
b10000 -
b11001 .
b1100110000 /
b0000100111 2
b0110011000 5
16
#402
#403
#404
#405
#406
06
#407
#408
#409
#410
#411
0'
1)
0+
b00000 -
b10011 .
b1001100000 /
b0000101000 2
b1100110000 5
16
#412
#413
#414
#415
#416
06
#417
#418
#419
#420
#421
0(
1*
0,
b00110 .
b0011000000 /
b0000101001 2
b1001100000 5
16
#422
#423
#424
#425
#426
06
#427
#428
#429
#430
#431
0)
1+
b01100 .
b0110000000 /
b0000101010 2
b0011000000 5
16
#432
#433
#434
#435
#436
06
#437
#438
#439
#440
#441
0*
1,
b11000 .
b1100000000 /
b0000101011 2
b0110000000 5
16
#442
#443
#444
#445
#446
06
#447
#448
#449
#450
#451
1#
0+
b00001 -
b10000 .
b1000000001 /
b0000101100 2
b1100000000 5
16
#452
#453
#454
#455
#456
06
#457
#458
#459
#460
#461
0#
1$
0,
b00010 -
b00000 .
b0000000010 /
b0000101101 2
b1000000001 5
16
#462
#463
#464
#465
#466
06
#467
#468
#469
#470
#471
1#
0$
1%
b00101 -
b0000000101 /
b0000101110 2
b0000000010 5
16
#472
#473
#474
#475
#476
06
#477
#478
#479
#480
#481
1$
0%
1&
b01011 -
b0000001011 /
b0000101111 2
b0000000101 5
16
#482
#483
#484
#485
#486
06
#487
#488
#489
#490
#491
1%
0&
1'
b10111 -
b0000010111 /
b0000110000 2
b0000001011 5
16
#492
#493
#494
#495
#496
06
#497
#498
#499
#500
#501
1&
0'
1(
b01111 -
b00001 .
b0000101111 /
b0000110001 2
b0000010111 5
16
#502
#503
#504
#505
#506
06
#507
#508
#509
#510
#511
0#
1'
0(
1)
b11110 -
b00010 .
b0001011110 /
b0000110010 2
b0000101111 5
16
#512
#513
#514
#515
#516
06
#517
#518
#519
#520
#521
0$
1(
0)
1*
b11100 -
b00101 .
b0010111100 /
b0000110011 2
b0001011110 5
16
#522
#523
#524
#525
#526
06
#527
#528
#529
#530
#531
0%
1)
0*
1+
b11000 -
b01011 .
b0101111000 /
b0000110100 2
b0010111100 5
16
#532
#533
#534
#535
#536
06
#537
#538
#539
#540
#541
0&
1*
0+
1,
b10000 -
b10111 .
b1011110000 /
b0000110101 2
b0101111000 5
16
#542
#543
#544
#545
#546
06
#547
#548
#549
#550
#551
0'
1+
0,
b00000 -
b01111 .
b0111100000 /
b0000110110 2
b1011110000 5
16
#552
#553
#554
#555
#556
06
#557
#558
#559
#560
#561
0(
1,
b11110 .
b1111000000 /
b0000110111 2
b0111100000 5
16
#562
#563
#564
#565
#566
06
#567
#568
#569
#570
#571
0)
b11100 .
b1110000000 /
b0000111000 2
b1111000000 5
16
#572
#573
#574
#575
#576
06
#577
#578
#579
#580
#581
1#
0*
b00001 -
b11000 .
b1100000001 /
b0000111001 2
b1110000000 5
16
#582
#583
#584
#585
#586
06
#587
#588
#589
#590
#591
1$
0+
b00011 -
b10000 .
b1000000011 /
b0000111010 2
b1100000001 5
16
#592
#593
#594
#595
#596
06
#597
#598
#599
#600
#601
0#
1%
0,
b00110 -
b00000 .
b0000000110 /
b0000111011 2
b1000000011 5
16
#602
#603
#604
#605
#606
06
#607
#608
#609
#610
#611
1#
0$
1&
b01101 -
b0000001101 /
b0000111100 2
b0000000110 5
16
#612
#613
#614
#615
#616
06
#617
#618
#619
#620
#621
1$
0%
1'
b11011 -
b0000011011 /
b0000111101 2
b0000001101 5
16
#622
#623
#624
#625
#626
06
#627
#628
#629
#630
#631
1%
0&
1(
b10111 -
b00001 .
b0000110111 /
b0000111110 2
b0000011011 5
16
#632
#633
#634
#635
#636
06
#637
#638
#639
#640
#641
0#
1&
0'
1)
b01110 -
b00011 .
b0001101110 /
b0000111111 2
b0000110111 5
16
#642
#643
#644
#645
#646
06
#647
#648
#649
#650
#651
1#
0$
1'
0(
1*
b11101 -
b00110 .
b0011011101 /
b0001000000 2
b0001101110 5
16
#652
#653
#654
#655
#656
06
#657
#658
#659
#660
#661
0#
1$
0%
1(
0)
1+
b11010 -
b01101 .
b0110111010 /
b0001000001 2
b0011011101 5
16
#662
#663
#664
#665
#666
06
#667
#668
#669
#670
#671
1#
0$
1%
0&
1)
0*
1,
b10101 -
b11011 .
b1101110101 /
b0001000010 2
b0110111010 5
16
#672
#673
#674
#675
#676
06
#677
#678
#679
#680
#681
1$
0%
1&
0'
1*
0+
b01011 -
b10111 .
b1011101011 /
b0001000011 2
b1101110101 5
16
#682
#683
#684
#685
#686
06
#687
#688
#689
#690
#691
0#
1%
0&
1'
0(
1+
0,
b10110 -
b01110 .
b0111010110 /
b0001000100 2
b1011101011 5
16
#692
#693
#694
#695
#696
06
#697
#698
#699
#700
#701
1#
0$
1&
0'
1(
0)
1,
b01101 -
b11101 .
b1110101101 /
b0001000101 2
b0111010110 5
16
#702
#703
#704
#705
#706
06
#707
#708
#709
#710
#711
0#
1$
0%
1'
0(
1)
0*
b11010 -
b11010 .
b1101011010 /
b0001000110 2
b1110101101 5
16
#712
#713
#714
#715
#716
06
#717
#718
#719
#720
#721
0$
1%
0&
1(
0)
1*
0+
b10100 -
b10101 .
b1010110100 /
b0001000111 2
b1101011010 5
16
#722
#723
#724
#725
#726
06
#727
#728
#729
#730
#731
1#
0%
1&
0'
1)
0*
1+
0,
b01001 -
b01011 .
b0101101001 /
b0001001000 2
b1010110100 5
16
#732
#733
#734
#735
#736
06
#737
#738
#739
#740
#741
0#
1$
0&
1'
0(
1*
0+
1,
b10010 -
b10110 .
b1011010010 /
b0001001001 2
b0101101001 5
16
#742
#743
#744
#745
#746
06
#747
#748
#749
#750
#751
1#
0$
1%
0'
1(
0)
1+
0,
b00101 -
b01101 .
b0110100101 /
b0001001010 2
b1011010010 5
16
#752
#753
#754
#755
#756
06
#757
#758
#759
#760
#761
1$
0%
1&
0(
1)
0*
1,
b01011 -
b11010 .
b1101001011 /
b0001001011 2
b0110100101 5
16
#762
#763
#764
#765
#766
06
#767
#768
#769
#770
#771
0#
1%
0&
1'
0)
1*
0+
b10110 -
b10100 .
b1010010110 /
b0001001100 2
b1101001011 5
16
#772
#773
#774
#775
#776
06
#777
#778
#779
#780
#781
0$
1&
0'
1(
0*
1+
0,
b01100 -
b01001 .
b0100101100 /
b0001001101 2
b1010010110 5
16
#782
#783
#784
#785
#786
06
#787
#788
#789
#790
#791
1#
0%
1'
0(
1)
0+
1,
b11001 -
b10010 .
b1001011001 /
b0001001110 2
b0100101100 5
16
#792
#793
#794
#795
#796
06
#797
#798
#799
#800
#801
1$
0&
1(
0)
1*
0,
b10011 -
b00101 .
b0010110011 /
b0001001111 2
b1001011001 5
16
#802
#803
#804
#805
#806
06
#807
#808
#809
#810
#811
0#
1%
0'
1)
0*
1+
b00110 -
b01011 .
b0101100110 /
b0001010000 2
b0010110011 5
16
#812
#813
#814
#815
#816
06
#817
#818
#819
#820
#821
0$
1&
0(
1*
0+
1,
b01100 -
b10110 .
b1011001100 /
b0001010001 2
b0101100110 5
16
#822
#823
#824
#825
#826
06
#827
#828
#829
#830
#831
1#
0%
1'
0)
1+
0,
b11001 -
b01100 .
b0110011001 /
b0001010010 2
b1011001100 5
16
#832
#833
#834
#835
#836
06
#837
#838
#839
#840
#841
0#
1$
0&
1(
0*
1,
b10010 -
b11001 .
b1100110010 /
b0001010011 2
b0110011001 5
16
#842
#843
#844
#845
#846
06
#847
#848
#849
#850
#851
0$
1%
0'
1)
0+
b00100 -
b10011 .
b1001100100 /
b0001010100 2
b1100110010 5
16
#852
#853
#854
#855
#856
06
#857
#858
#859
#860
#861
0%
1&
0(
1*
0,
b01000 -
b00110 .
b0011001000 /
b0001010101 2
b1001100100 5
16
#862
#863
#864
#865
#866
06
#867
#868
#869
#870
#871
0&
1'
0)
1+
b10000 -
b01100 .
b0110010000 /
b0001010110 2
b0011001000 5
16
#872
#873
#874
#875
#876
06
#877
#878
#879
#880
#881
0'
1(
0*
1,
b00000 -
b11001 .
b1100100000 /
b0001010111 2
b0110010000 5
16
#882
#883
#884
#885
#886
06
#887
#888
#889
#890
#891
0(
1)
0+
b10010 .
b1001000000 /
b0001011000 2
b1100100000 5
16
#892
#893
#894
#895
#896
06
#897
#898
#899
#900
#901
1#
0)
1*
0,
b00001 -
b00100 .
b0010000001 /
b0001011001 2
b1001000000 5
16
#902
#903
#904
#905
#906
06
#907
#908
#909
#910
#911
1$
0*
1+
b00011 -
b01000 .
b0100000011 /
b0001011010 2
b0010000001 5
16
#912
#913
#914
#915
#916
06
#917
#918
#919
#920
#921
0#
1%
0+
1,
b00110 -
b10000 .
b1000000110 /
b0001011011 2
b0100000011 5
16
#922
#923
#924
#925
#926
06
#927
#928
#929
#930
#931
0$
1&
0,
b01100 -
b00000 .
b0000001100 /
b0001011100 2
b1000000110 5
16
#932
#933
#934
#935
#936
06
#937
#938
#939
#940
#941
1#
0%
1'
b11001 -
b0000011001 /
b0001011101 2
b0000001100 5
16
#942
#943
#944
#945
#946
06
#947
#948
#949
#950
#951
1$
0&
1(
b10011 -
b00001 .
b0000110011 /
b0001011110 2
b0000011001 5
16
#952
#953
#954
#955
#956
06
#957
#958
#959
#960
#961
0#
1%
0'
1)
b00110 -
b00011 .
b0001100110 /
b0001011111 2
b0000110011 5
16
#962
#963
#964
#965
#966
06
#967
#968
#969
#970
#971
1#
0$
1&
0(
1*
b01101 -
b00110 .
b0011001101 /
b0001100000 2
b0001100110 5
16
#972
#973
#974
#975
#976
06
#977
#978
#979
#980
#981
0#
1$
0%
1'
0)
1+
b11010 -
b01100 .
b0110011010 /
b0001100001 2
b0011001101 5
16
#982
#983
#984
#985
#986
06
#987
#988
#989
#990
#991
0$
1%
0&
1(
0*
1,
b10100 -
b11001 .
b1100110100 /
b0001100010 2
b0110011010 5
16
#992
#993
#994
#995
#996
06
#997
#998
#999
#1000
#1001
0%
1&
0'
1)
0+
b01000 -
b10011 .
b1001101000 /
b0001100011 2
b1100110100 5
16
#1002
#1003
#1004
#1005
#1006
06
#1007
#1008
#1009
#1010
#1011
0&
1'
0(
1*
0,
b10000 -
b00110 .
b0011010000 /
b0001100100 2
b1001101000 5
16
#1012
#1013
#1014
#1015
#1016
06
#1017
#1018
#1019
#1020
#1021
0'
1(
0)
1+
b00000 -
b01101 .
b0110100000 /
b0001100101 2
b0011010000 5
16
#1022
#1023
#1024
#1025
#1026
06
#1027
#1028
#1029
#1030
#1031
1#
0(
1)
0*
1,
b00001 -
b11010 .
b1101000001 /
b0001100110 2
b0110100000 5
16
#1032
#1033
#1034
#1035
#1036
06
#1037
#1038
#1039
#1040
#1041
0#
1$
0)
1*
0+
b00010 -
b10100 .
b1010000010 /
b0001100111 2
b1101000001 5
16
#1042
#1043
#1044
#1045
#1046
06
#1047
#1048
#1049
#1050
#1051
0$
1%
0*
1+
0,
b00100 -
b01000 .
b0100000100 /
b0001101000 2
b1010000010 5
16
#1052
#1053
#1054
#1055
#1056
06
#1057
#1058
#1059
#1060
#1061
0%
1&
0+
1,
b01000 -
b10000 .
b1000001000 /
b0001101001 2
b0100000100 5
16
#1062
#1063
#1064
#1065
#1066
06
#1067
#1068
#1069
#1070
#1071
0&
1'
0,
b10000 -
b00000 .
b0000010000 /
b0001101010 2
b1000001000 5
16
#1072
#1073
#1074
#1075
#1076
06
#1077
#1078
#1079
#1080
#1081
1#
0'
1(
b00001 -
b00001 .
b0000100001 /
b0001101011 2
b0000010000 5
16
#1082
#1083
#1084
#1085
#1086
06
#1087
#1088
#1089
#1090
#1091
0#
1$
0(
1)
b00010 -
b00010 .
b0001000010 /
b0001101100 2
b0000100001 5
16
#1092
#1093
#1094
#1095
#1096
06
#1097
#1098
#1099
#1100
#1101
0$
1%
0)
1*
b00100 -
b00100 .
b0010000100 /
b0001101101 2
b0001000010 5
16
#1102
#1103
#1104
#1105
#1106
06
#1107
#1108
#1109
#1110
#1111
1#
0%
1&
0*
1+
b01001 -
b01000 .
b0100001001 /
b0001101110 2
b0010000100 5
16
#1112
#1113
#1114
#1115
#1116
06
#1117
#1118
#1119
#1120
#1121
0#
1$
0&
1'
0+
1,
b10010 -
b10000 .
b1000010010 /
b0001101111 2
b0100001001 5
16
#1122
#1123
#1124
#1125
#1126
06
#1127
#1128
#1129
#1130
#1131
0$
1%
0'
1(
0,
b00100 -
b00001 .
b0000100100 /
b0001110000 2
b1000010010 5
16
#1132
#1133
#1134
#1135
#1136
06
#1137
#1138
#1139
#1140
#1141
0%
1&
0(
1)
b01000 -
b00010 .
b0001001000 /
b0001110001 2
b0000100100 5
16
#1142
#1143
#1144
#1145
#1146
06
#1147
#1148
#1149
#1150
#1151
0&
1'
0)
1*
b10000 -
b00100 .
b0010010000 /
b0001110010 2
b0001001000 5
16
#1152
#1153
#1154
#1155
#1156
06
#1157
#1158
#1159
#1160
#1161
1#
0'
1(
0*
1+
b00001 -
b01001 .
b0100100001 /
b0001110011 2
b0010010000 5
16
#1162
#1163
#1164
#1165
#1166
06
#1167
#1168
#1169
#1170
#1171
1$
0(
1)
0+
1,
b00011 -
b10010 .
b1001000011 /
b0001110100 2
b0100100001 5
16
#1172
#1173
#1174
#1175
#1176
06
#1177
#1178
#1179
#1180
#1181
1%
0)
1*
0,
b00111 -
b00100 .
b0010000111 /
b0001110101 2
b1001000011 5
16
#1182
#1183
#1184
#1185
#1186
06
#1187
#1188
#1189
#1190
#1191
1&
0*
1+
b01111 -
b01000 .
b0100001111 /
b0001110110 2
b0010000111 5
16
#1192
#1193
#1194
#1195
#1196
06
#1197
#1198
#1199
#1200
#1201
0#
1'
0+
1,
b11110 -
b10000 .
b1000011110 /
b0001110111 2
b0100001111 5
16
#1202
#1203
#1204
#1205
#1206
06
#1207
#1208
#1209
#1210
#1211
0$
1(
0,
b11100 -
b00001 .
b0000111100 /
b0001111000 2
b1000011110 5
16
#1212
#1213
#1214
#1215
#1216
06
#1217
#1218
#1219
#1220
#1221
0%
1)
b11000 -
b00011 .
b0001111000 /
b0001111001 2
b0000111100 5
16
#1222
#1223
#1224
#1225
#1226
06
#1227
#1228
#1229
#1230
#1231
1#
0&
1*
b10001 -
b00111 .
b0011110001 /
b0001111010 2
b0001111000 5
16
#1232
#1233
#1234
#1235
#1236
06
#1237
#1238
#1239
#1240
#1241
1$
0'
1+
b00011 -
b01111 .
b0111100011 /
b0001111011 2
b0011110001 5
16
#1242
#1243
#1244
#1245
#1246
06
#1247
#1248
#1249
#1250
#1251
0#
1%
0(
1,
b00110 -
b11110 .
b1111000110 /
b0001111100 2
b0111100011 5
16
#1252
#1253
#1254
#1255
#1256
06
#1257
#1258
#1259
#1260
#1261
0$
1&
0)
b01100 -
b11100 .
b1110001100 /
b0001111101 2
b1111000110 5
16
#1262
#1263
#1264
#1265
#1266
06
#1267
#1268
#1269
#1270
#1271
1#
0%
1'
0*
b11001 -
b11000 .
b1100011001 /
b0001111110 2
b1110001100 5
16
#1272
#1273
#1274
#1275
#1276
06
#1277
#1278
#1279
#1280
#1281
1$
0&
1(
0+
b10011 -
b10001 .
b1000110011 /
b0001111111 2
b1100011001 5
16
#1282
#1283
#1284
#1285
#1286
06
#1287
#1288
#1289
#1290
#1291
1%
0'
1)
0,
b00111 -
b00011 .
b0001100111 /
b0010000000 2
b1000110011 5
16
#1292
#1293
#1294
#1295
#1296
06
#1297
#1298
#1299
#1300
#1301
1&
0(
1*
b01111 -
b00110 .
b0011001111 /
b0010000001 2
b0001100111 5
16
#1302
#1303
#1304
#1305
#1306
06
#1307
#1308
#1309
#1310
#1311
0#
1'
0)
1+
b11110 -
b01100 .
b0110011110 /
b0010000010 2
b0011001111 5
16
#1312
#1313
#1314
#1315
#1316
06
#1317
#1318
#1319
#1320
#1321
0$
1(
0*
1,
b11100 -
b11001 .
b1100111100 /
b0010000011 2
b0110011110 5
16
#1322
#1323
#1324
#1325
#1326
06
#1327
#1328
#1329
#1330
#1331
0%
1)
0+
b11000 -
b10011 .
b1001111000 /
b0010000100 2
b1100111100 5
16
#1332
#1333
#1334
#1335
#1336
06
#1337
#1338
#1339
#1340
#1341
0&
1*
0,
b10000 -
b00111 .
b0011110000 /
b0010000101 2
b1001111000 5
16
#1342
#1343
#1344
#1345
#1346
06
#1347
#1348
#1349
#1350
#1351
1#
0'
1+
b00001 -
b01111 .
b0111100001 /
b0010000110 2
b0011110000 5
16
#1352
#1353
#1354
#1355
#1356
06
#1357
#1358
#1359
#1360
#1361
0#
1$
0(
1,
b00010 -
b11110 .
b1111000010 /
b0010000111 2
b0111100001 5
16
#1362
#1363
#1364
#1365
#1366
06
#1367
#1368
#1369
#1370
#1371
0$
1%
0)
b00100 -
b11100 .
b1110000100 /
b0010001000 2
b1111000010 5
16
#1372
#1373
#1374
#1375
#1376
06
#1377
#1378
#1379
#1380
#1381
1#
0%
1&
0*
b01001 -
b11000 .
b1100001001 /
b0010001001 2
b1110000100 5
16
#1382
#1383
#1384
#1385
#1386
06
#1387
#1388
#1389
#1390
#1391
1$
0&
1'
0+
b10011 -
b10000 .
b1000010011 /
b0010001010 2
b1100001001 5
16
#1392
#1393
#1394
#1395
#1396
06
#1397
#1398
#1399
#1400
#1401
0#
1%
0'
1(
0,
b00110 -
b00001 .
b0000100110 /
b0010001011 2
b1000010011 5
16
#1402
#1403
#1404
#1405
#1406
06
#1407
#1408
#1409
#1410
#1411
0$
1&
0(
1)
b01100 -
b00010 .
b0001001100 /
b0010001100 2
b0000100110 5
16
#1412
#1413
#1414
#1415
#1416
06
#1417
#1418
#1419
#1420
#1421
0%
1'
0)
1*
b11000 -
b00100 .
b0010011000 /
b0010001101 2
b0001001100 5
16
#1422
#1423
#1424
#1425
#1426
06
#1427
#1428
#1429
#1430
#1431
1#
0&
1(
0*
1+
b10001 -
b01001 .
b0100110001 /
b0010001110 2
b0010011000 5
16
#1432
#1433
#1434
#1435
#1436
06
#1437
#1438
#1439
#1440
#1441
1$
0'
1)
0+
1,
b00011 -
b10011 .
b1001100011 /
b0010001111 2
b0100110001 5
16
#1442
#1443
#1444
#1445
#1446
06
#1447
#1448
#1449
#1450
#1451
0#
1%
0(
1*
0,
b00110 -
b00110 .
b0011000110 /
b0010010000 2
b1001100011 5
16
#1452
#1453
#1454
#1455
#1456
06
#1457
#1458
#1459
#1460
#1461
0$
1&
0)
1+
b01100 -
b01100 .
b0110001100 /
b0010010001 2
b0011000110 5
16
#1462
#1463
#1464
#1465
#1466
06
#1467
#1468
#1469
#1470
#1471
0%
1'
0*
1,
b11000 -
b11000 .
b1100011000 /
b0010010010 2
b0110001100 5
16
#1472
#1473
#1474
#1475
#1476
06
#1477
#1478
#1479
#1480
#1481
1#
0&
1(
0+
b10001 -
b10001 .
b1000110001 /
b0010010011 2
b1100011000 5
16
#1482
#1483
#1484
#1485
#1486
06
#1487
#1488
#1489
#1490
#1491
1$
0'
1)
0,
b00011 -
b00011 .
b0001100011 /
b0010010100 2
b1000110001 5
16
#1492
#1493
#1494
#1495
#1496
06
#1497
#1498
#1499
#1500
#1501
1%
0(
1*
b00111 -
b00110 .
b0011000111 /
b0010010101 2
b0001100011 5
16
#1502
#1503
#1504
#1505
#1506
06
#1507
#1508
#1509
#1510
#1511
0#
1&
0)
1+
b01110 -
b01100 .
b0110001110 /
b0010010110 2
b0011000111 5
16
#1512
#1513
#1514
#1515
#1516
06
#1517
#1518
#1519
#1520
#1521
0$
1'
0*
1,
b11100 -
b11000 .
b1100011100 /
b0010010111 2
b0110001110 5
16
#1522
#1523
#1524
#1525
#1526
06
#1527
#1528
#1529
#1530
#1531
1#
0%
1(
0+
b11001 -
b10001 .
b1000111001 /
b0010011000 2
b1100011100 5
16
#1532
#1533
#1534
#1535
#1536
06
#1537
#1538
#1539
#1540
#1541
1$
0&
1)
0,
b10011 -
b00011 .
b0001110011 /
b0010011001 2
b1000111001 5
16
#1542
#1543
#1544
#1545
#1546
06
#1547
#1548
#1549
#1550
#1551
1%
0'
1*
b00111 -
b00111 .
b0011100111 /
b0010011010 2
b0001110011 5
16
#1552
#1553
#1554
#1555
#1556
06
#1557
#1558
#1559
#1560
#1561
1&
0(
1+
b01111 -
b01110 .
b0111001111 /
b0010011011 2
b0011100111 5
16
#1562
#1563
#1564
#1565
#1566
06
#1567
#1568
#1569
#1570
#1571
1'
0)
1,
b11111 -
b11100 .
b1110011111 /
b0010011100 2
b0111001111 5
16
#1572
#1573
#1574
#1575
#1576
06
#1577
#1578
#1579
#1580
#1581
1(
0*
b11001 .
b1100111111 /
b0010011101 2
b1110011111 5
16
#1582
#1583
#1584
#1585
#1586
06
#1587
#1588
#1589
#1590
#1591
0#
1)
0+
b11110 -
b10011 .
b1001111110 /
b0010011110 2
b1100111111 5
16
#1592
#1593
#1594
#1595
#1596
06
#1597
#1598
#1599
#1600
#1601
0$
1*
0,
b11100 -
b00111 .
b0011111100 /
b0010011111 2
b1001111110 5
16
#1602
#1603
#1604
#1605
#1606
06
#1607
#1608
#1609
#1610
#1611
1#
0%
1+
b11001 -
b01111 .
b0111111001 /
b0010100000 2
b0011111100 5
16
#1612
#1613
#1614
#1615
#1616
06
#1617
