chisel3/test_run_dir/MultiClockSubModuleTest/2022032915194510152693556250419748/dump.vcd
$version Generated by VerilatedVcd $end
$date Tue Mar 29 15:20:04 2022 $end
$timescale 1ps $end

 $scope module TOP $end
  $var wire  1 & clock $end
  $var wire  1 ' reset $end
  $scope module MultiClockSubModuleTest $end
   $var wire  1 ( cDiv $end
   $var wire  1 & clock $end
   $var wire  4 $ cycle [3:0] $end
   $var wire  1 ( inst_clock $end
   $var wire  4 ) inst_io_out [3:0] $end
   $var wire  1 # inst_reset $end
   $var wire  1 ' reset $end
   $var wire  1 % wrap_wrap $end
   $scope module inst $end
    $var wire  1 ( clock $end
    $var wire  4 ) cycle [3:0] $end
    $var wire  1 * cycle_wrap_wrap $end
    $var wire  4 ) io_out [3:0] $end
    $var wire  1 # reset $end
   $upscope $end
  $upscope $end
 $upscope $end
$enddefinitions $end


#0
1#
b0000 $
0%
0&
1'
0(
b0000 )
0*
#1
1&
1(
#2
#3
#4
#5
#6
0&
#7
#8
#9
#10
0'
#11
b0001 $
1&
0(
#12
#13
#14
#15
#16
0&
#17
#18
#19
#20
#21
b0010 $
1&
1(
#22
#23
#24
#25
#26
0&
#27
#28
#29
#30
#31
0#
b0011 $
1&
0(
#32
#33
#34
#35
#36
0&
#37
#38
#39
#40
#41
b0100 $
1&
1(
b0001 )
#42
#43
#44
#45
#46
0&
#47
#48
#49
#50
#51
b0101 $
1&
0(
#52
#53
#54
#55
#56
0&
#57
#58
#59
#60
#61
b0110 $
1&
1(
b0010 )
#62
#63
#64
#65
#66
0&
#67
#68
#69
#70
#71
b0111 $
1&
0(
#72
#73
#74
#75
#76
0&
#77
#78
#79
#80
#81
b1000 $
1&
1(
b0011 )
#82
#83
#84
#85
#86
0&
#87
#88
#89
#90
#91
b1001 $
1%
1&
0(
