chisel3/test_run_dir/AsyncResetQueueTester/202203291509032141698995483575895/dump.vcd
$version Generated by VerilatedVcd $end
$date Tue Mar 29 15:09:21 2022 $end
$timescale 1ps $end

 $scope module TOP $end
  $var wire  1 - clock $end
  $var wire  1 . reset $end
  $scope module AsyncResetQueueTester $end
   $var wire  1 / asyncResetNext $end
   $var wire  2 $ cDiv_value [1:0] $end
   $var wire  1 - clock $end
   $var wire  4 % count [3:0] $end
   $var wire  1 ' doCheck $end
   $var wire  1 # queue_clock $end
   $var wire  3 0 queue_io_count [2:0] $end
   $var wire  1 ( queue_io_enq_ready $end
   $var wire  1 / queue_reset $end
   $var wire  1 . reset $end
   $var wire  1 & wrap_wrap $end
   $scope module queue $end
    $var wire  1 # clock $end
    $var wire  2 ) enq_ptr_value [1:0] $end
    $var wire  1 , full $end
    $var wire  3 0 io_count [2:0] $end
    $var wire  1 ( io_enq_ready $end
    $var wire  1 * maybe_full $end
    $var wire  2 ) ptr_diff [1:0] $end
    $var wire  1 + ptr_match $end
    $var wire  1 / reset $end
   $upscope $end
  $upscope $end
 $upscope $end
$enddefinitions $end


#0
0#
b00 $
b0000 %
0&
0'
1(
b00 )
0*
1+
0,
0-
1.
0/
b000 0
#1
1-
#2
#3
#4
#5
#6
0-
#7
#8
#9
#10
0.
#11
b01 $
b0001 %
1-
#12
#13
#14
#15
#16
0-
#17
#18
#19
#20
#21
b10 $
b0010 %
1-
#22
#23
#24
#25
#26
0-
#27
#28
#29
#30
#31
1#
b11 $
b0011 %
b01 )
1*
0+
1-
b001 0
#32
#33
#34
#35
#36
0-
#37
#38
#39
#40
#41
0#
b00 $
b0100 %
1-
#42
#43
#44
#45
#46
0-
#47
#48
#49
#50
#51
b01 $
b0101 %
1-
#52
#53
#54
#55
#56
0-
#57
#58
#59
#60
#61
b10 $
b0110 %
1-
#62
#63
#64
#65
#66
0-
#67
#68
#69
#70
#71
1#
b11 $
b0111 %
b10 )
1-
b010 0
#72
#73
#74
#75
#76
0-
#77
#78
#79
#80
#81
0#
b00 $
b1000 %
1-
#82
#83
#84
#85
#86
0-
#87
#88
#89
#90
#91
b01 $
b1001 %
1-
#92
#93
#94
#95
#96
0-
#97
#98
#99
#100
#101
b10 $
b1010 %
1-
#102
#103
#104
#105
#106
0-
#107
#108
#109
#110
#111
1#
b11 $
b1011 %
b11 )
1-
b011 0
#112
#113
#114
#115
#116
0-
#117
#118
#119
#120
#121
0#
b00 $
b1100 %
1'
b00 )
0*
1+
1-
1/
b000 0
#122
#123
#124
#125
#126
0-
#127
#128
#129
#130
#131
b01 $
b1101 %
0'
1-
0/
#132
#133
#134
#135
#136
0-
#137
#138
#139
#140
#141
b10 $
b1110 %
1-
#142
#143
#144
#145
#146
0-
#147
#148
#149
#150
#151
1#
b11 $
b1111 %
1&
b01 )
1*
0+
1-
b001 0
