chisel3/test_run_dir/FullQueueFlushEdgecaseTester/202203291517337300335755997993145/dump.vcd
$version Generated by VerilatedVcd $end
$date Tue Mar 29 15:17:50 2022 $end
$timescale 1ps $end

 $scope module TOP $end
  $var wire  1 D clock $end
  $var wire  1 E reset $end
  $scope module FullQueueFlushEdgecaseTester $end
   $var wire  1 D clock $end
   $var wire  3 < currQCnt [2:0] $end
   $var wire  1 ) flush $end
   $var wire  1 = flushRegister $end
   $var wire  5 ; outCnt [4:0] $end
   $var wire  1 D q_clock $end
   $var wire  1 ' q_io_count $end
   $var wire  2 ( q_io_deq_bits [1:0] $end
   $var wire  1 & q_io_deq_ready $end
   $var wire  8 > q_io_deq_ready_lo [7:0] $end
   $var wire  1 D q_io_deq_ready_prng_clock $end
   $var wire  1 * q_io_deq_ready_prng_io_out_0 $end
   $var wire  1 + q_io_deq_ready_prng_io_out_1 $end
   $var wire  1 4 q_io_deq_ready_prng_io_out_10 $end
   $var wire  1 5 q_io_deq_ready_prng_io_out_11 $end
   $var wire  1 6 q_io_deq_ready_prng_io_out_12 $end
   $var wire  1 7 q_io_deq_ready_prng_io_out_13 $end
   $var wire  1 8 q_io_deq_ready_prng_io_out_14 $end
   $var wire  1 9 q_io_deq_ready_prng_io_out_15 $end
   $var wire  1 , q_io_deq_ready_prng_io_out_2 $end
   $var wire  1 - q_io_deq_ready_prng_io_out_3 $end
   $var wire  1 . q_io_deq_ready_prng_io_out_4 $end
   $var wire  1 / q_io_deq_ready_prng_io_out_5 $end
   $var wire  1 0 q_io_deq_ready_prng_io_out_6 $end
   $var wire  1 1 q_io_deq_ready_prng_io_out_7 $end
   $var wire  1 2 q_io_deq_ready_prng_io_out_8 $end
   $var wire  1 3 q_io_deq_ready_prng_io_out_9 $end
   $var wire  1 E q_io_deq_ready_prng_reset $end
   $var wire  1 ' q_io_deq_valid $end
   $var wire  2 % q_io_enq_bits [1:0] $end
   $var wire  1 # q_io_enq_ready $end
   $var wire  1 $ q_io_enq_valid $end
   $var wire  1 ) q_io_flush $end
   $var wire  1 E q_reset $end
   $var wire  1 E reset $end
   $var wire  5 : value [4:0] $end
   $var wire  1 ? wrap $end
   $scope module q $end
    $var wire  1 D clock $end
    $var wire  1 C do_deq $end
    $var wire  1 B do_enq $end
    $var wire  1 # empty $end
    $var wire  1 ' io_count $end
    $var wire  2 ( io_deq_bits [1:0] $end
    $var wire  1 & io_deq_ready $end
    $var wire  1 ' io_deq_valid $end
    $var wire  2 % io_enq_bits [1:0] $end
    $var wire  1 # io_enq_ready $end
    $var wire  1 $ io_enq_valid $end
    $var wire  1 ) io_flush $end
    $var wire  1 ' maybe_full $end
    $var wire  2 @ ram[0] [1:0] $end
    $var wire  1 G ram_MPORT_addr $end
    $var wire  2 % ram_MPORT_data [1:0] $end
    $var wire  1 A ram_MPORT_en $end
    $var wire  1 F ram_MPORT_mask $end
    $var wire  1 G ram_io_deq_bits_MPORT_addr $end
    $var wire  2 ( ram_io_deq_bits_MPORT_data [1:0] $end
    $var wire  1 F ram_io_deq_bits_MPORT_en $end
    $var wire  1 E reset $end
   $upscope $end
   $scope module q_io_deq_ready_prng $end
    $var wire  1 D clock $end
    $var wire  1 * io_out_0 $end
    $var wire  1 + io_out_1 $end
    $var wire  1 4 io_out_10 $end
    $var wire  1 5 io_out_11 $end
    $var wire  1 6 io_out_12 $end
    $var wire  1 7 io_out_13 $end
    $var wire  1 8 io_out_14 $end
    $var wire  1 9 io_out_15 $end
    $var wire  1 , io_out_2 $end
    $var wire  1 - io_out_3 $end
    $var wire  1 . io_out_4 $end
    $var wire  1 / io_out_5 $end
    $var wire  1 0 io_out_6 $end
    $var wire  1 1 io_out_7 $end
    $var wire  1 2 io_out_8 $end
    $var wire  1 3 io_out_9 $end
    $var wire  1 E reset $end
    $var wire  1 * state_0 $end
    $var wire  1 + state_1 $end
    $var wire  1 4 state_10 $end
    $var wire  1 5 state_11 $end
    $var wire  1 6 state_12 $end
    $var wire  1 7 state_13 $end
    $var wire  1 8 state_14 $end
    $var wire  1 9 state_15 $end
    $var wire  1 , state_2 $end
    $var wire  1 - state_3 $end
    $var wire  1 . state_4 $end
    $var wire  1 / state_5 $end
    $var wire  1 0 state_6 $end
    $var wire  1 1 state_7 $end
    $var wire  1 2 state_8 $end
    $var wire  1 3 state_9 $end
   $upscope $end
  $upscope $end
 $upscope $end
$enddefinitions $end


#0
1#
1$
b01 %
0&
0'
b00 (
0)
0*
0+
0,
0-
0.
0/
00
01
02
03
04
05
06
07
08
09
b00000 :
b00000 ;
b000 <
0=
b00000000 >
0?
b00 @
1A
1B
0C
0D
1E
1F
0G
#1
b01 (
1*
b00000001 >
b01 @
1D
#2
#3
#4
#5
#6
0D
#7
#8
#9
#10
0E
#11
0#
b11 %
1&
1'
1)
0*
1+
b00001 :
b001 <
b00000010 >
0A
0B
1C
1D
#12
#13
#14
#15
#16
0D
#17
#18
#19
#20
#21
1#
0&
0'
0)
0+
1,
b00001 ;
b000 <
1=
b00000100 >
1A
1B
0C
1D
#22
#23
#24
#25
#26
0D
#27
#28
#29
#30
#31
0#
1'
b11 (
1)
0,
1-
b00010 :
b001 <
0=
b00001000 >
b11 @
0A
0B
1D
#32
#33
#34
#35
#36
0D
#37
#38
#39
#40
#41
1#
0'
0)
0-
1.
b00010 ;
b000 <
1=
b00010000 >
1A
1B
1D
#42
#43
#44
#45
#46
0D
#47
#48
#49
#50
#51
0#
b01 %
1'
1)
0.
1/
b00011 :
b001 <
0=
b00100000 >
0A
0B
1D
#52
#53
#54
#55
#56
0D
#57
#58
#59
#60
#61
1#
0'
0)
0/
10
b00011 ;
b000 <
1=
b01000000 >
1A
1B
1D
#62
#63
#64
#65
#66
0D
#67
#68
#69
#70
#71
0#
b10 %
1'
b01 (
1)
00
11
b00100 :
b001 <
0=
b10000000 >
b01 @
0A
0B
1D
#72
#73
#74
#75
#76
0D
#77
#78
#79
#80
#81
1#
0'
0)
01
12
b00100 ;
b000 <
1=
b00000000 >
1A
1B
1D
#82
#83
#84
#85
#86
0D
#87
#88
#89
#90
#91
0#
b00 %
1'
b10 (
1)
02
13
b00101 :
b001 <
0=
b10 @
0A
0B
1D
#92
#93
#94
#95
#96
0D
#97
#98
#99
#100
#101
1#
0'
0)
03
14
b00101 ;
b000 <
1=
1A
1B
1D
#102
#103
#104
#105
#106
0D
#107
#108
#109
#110
#111
0#
b11 %
1'
b00 (
1)
1*
04
15
b00110 :
b001 <
0=
b00000001 >
b00 @
0A
0B
1D
#112
#113
#114
#115
#116
0D
#117
#118
#119
#120
#121
1#
1&
0'
0)
0*
1+
05
16
b00110 ;
b000 <
1=
b00000010 >
1A
1B
1D
#122
#123
#124
#125
#126
0D
#127
#128
#129
#130
#131
0#
b10 %
0&
1'
b11 (
1)
1*
0+
1,
06
17
b00111 :
b001 <
0=
b00000101 >
b11 @
0A
0B
1D
#132
#133
#134
#135
#136
0D
#137
#138
#139
#140
#141
1#
1&
0'
0)
1+
0,
1-
07
18
b00111 ;
b000 <
1=
b00001011 >
1A
1B
1D
#142
#143
#144
#145
#146
0D
#147
#148
#149
#150
#151
0#
b11 %
1'
b10 (
1)
0*
1,
0-
1.
08
19
b01000 :
b001 <
0=
b00010110 >
b10 @
0A
0B
1C
1D
#152
#153
#154
#155
#156
0D
#157
#158
#159
#160
#161
1#
0&
0'
0)
1*
0+
1-
0.
1/
09
b01000 ;
b000 <
1=
b00101101 >
1A
1B
0C
1D
#162
#163
#164
#165
#166
0D
#167
#168
#169
#170
#171
0#
b00 %
1&
1'
b11 (
1)
0*
1+
0,
1.
0/
10
b01001 :
b001 <
0=
b01011010 >
b11 @
0A
0B
1C
1D
#172
#173
#174
#175
#176
0D
#177
#178
#179
#180
#181
1#
0&
0'
0)
0+
1,
0-
1/
00
11
b01001 ;
b000 <
1=
b10110100 >
1A
1B
0C
1D
#182
#183
#184
#185
#186
0D
#187
#188
#189
#190
#191
0#
b01 %
1'
b00 (
1)
0,
1-
0.
10
01
12
b01010 :
b001 <
0=
b01101000 >
b00 @
0A
0B
1D
#192
#193
#194
#195
#196
0D
#197
#198
#199
#200
#201
1#
0'
0)
0-
1.
0/
11
02
13
b01010 ;
b000 <
1=
b11010000 >
1A
1B
1D
#202
#203
#204
#205
#206
0D
#207
#208
#209
#210
#211
0#
b10 %
1'
b01 (
1)
0.
1/
00
12
03
14
b01011 :
b001 <
0=
b10100000 >
b01 @
0A
0B
1D
#212
#213
#214
#215
#216
0D
#217
#218
#219
#220
#221
1#
0'
0)
1*
0/
10
01
13
04
15
b01011 ;
b000 <
1=
b01000001 >
1A
1B
1D
#222
#223
#224
#225
#226
0D
#227
#228
#229
#230
#231
0#
1&
1'
b10 (
1)
0*
1+
00
11
02
14
05
16
b01100 :
b001 <
0=
b10000010 >
b10 @
0A
0B
1C
1D
#232
#233
#234
#235
#236
0D
#237
#238
#239
#240
#241
1#
0&
0'
0)
0+
1,
01
12
03
15
06
17
b01100 ;
b000 <
1=
b00000100 >
1A
1B
0C
1D
#242
#243
#244
#245
#246
0D
#247
#248
#249
#250
#251
0#
b11 %
1'
1)
0,
1-
02
13
04
16
07
18
b01101 :
b001 <
0=
b00001000 >
0A
0B
1D
#252
#253
#254
#255
#256
0D
#257
#258
#259
#260
#261
1#
0'
0)
1*
0-
1.
03
14
05
17
08
19
b01101 ;
b000 <
1=
b00010001 >
1A
1B
1D
#262
#263
#264
#265
#266
0D
#267
#268
#269
#270
#271
0#
1&
1'
b11 (
1)
0*
1+
0.
1/
04
15
06
18
09
b01110 :
b001 <
0=
b00100010 >
b11 @
0A
0B
1C
1D
#272
#273
#274
#275
#276
0D
#277
#278
#279
#280
#281
1#
0&
0'
0)
1*
0+
1,
0/
10
05
16
07
19
b01110 ;
b000 <
1=
b01000101 >
1A
1B
0C
1D
#282
#283
#284
#285
#286
0D
#287
#288
#289
#290
#291
0#
b10 %
1&
1'
1)
0*
1+
0,
1-
00
11
06
17
08
b01111 :
b001 <
0=
b10001010 >
0A
0B
1C
1D
#292
#293
#294
#295
#296
0D
#297
#298
#299
#300
#301
1#
0&
0'
0)
0+
1,
0-
1.
01
12
07
18
09
b01111 ;
b000 <
1=
b00010100 >
1A
1B
0C
1D
#302
#303
#304
#305
#306
0D
#307
#308
#309
#310
#311
0#
1'
b10 (
1)
0,
1-
0.
1/
02
13
08
19
b10000 :
b001 <
0=
b00101000 >
b10 @
0A
0B
1D
#312
#313
#314
#315
#316
0D
#317
#318
#319
#320
#321
1#
0'
0)
1*
0-
1.
0/
10
03
14
09
b10000 ;
b000 <
1=
b01010001 >
1A
1B
1D
#322
#323
#324
#325
#326
0D
#327
#328
#329
#330
#331
0#
1&
1'
1)
1+
0.
1/
00
11
04
15
b10001 :
b001 <
0=
b10100011 >
0A
0B
1C
1D
#332
#333
#334
#335
#336
0D
#337
#338
#339
#340
#341
1#
0'
0)
0*
1,
0/
10
01
12
05
16
b10001 ;
b000 <
1=
b01000110 >
1A
1B
0C
1D
#342
#343
#344
#345
#346
0D
#347
#348
#349
#350
#351
0#
b11 %
0&
1'
1)
1*
0+
1-
00
11
02
13
06
17
b10010 :
b001 <
0=
b10001101 >
0A
0B
1D
#352
#353
#354
#355
#356
0D
#357
#358
#359
#360
#361
1#
1&
0'
0)
1+
0,
1.
01
12
03
14
07
18
b10010 ;
b000 <
1=
b00011011 >
1A
1B
1D
#362
#363
#364
#365
#366
0D
#367
#368
#369
#370
#371
0#
b01 %
1'
b11 (
1)
1,
0-
1/
02
13
04
15
08
19
b10011 :
b001 <
0=
b00110111 >
b11 @
0A
0B
1C
1D
#372
#373
#374
#375
#376
0D
#377
#378
#379
#380
#381
1#
0'
0)
1-
0.
10
03
14
05
16
09
b10011 ;
b000 <
1=
b01101111 >
1A
1B
0C
1D
#382
#383
#384
#385
#386
0D
#387
#388
#389
#390
#391
0#
0$
1'
b01 (
1)
0*
1.
0/
11
04
15
06
17
b10100 :
b001 <
0=
b11011110 >
1?
b01 @
0A
0B
1C
1D
