chisel3/test_run_dir/LFSRMaxPeriod/202203291501341587903702367101367/dump.vcd
$version Generated by VerilatedVcd $end
$date Tue Mar 29 15:01:50 2022 $end
$timescale 1ps $end

 $scope module TOP $end
  $var wire  1 3 clock $end
  $var wire  1 4 reset $end
  $scope module LFSRMaxPeriod $end
   $var wire  1 3 clock $end
   $var wire  7 2 last [6:0] $end
   $var wire  1 4 reset $end
   $var wire  7 , rv [6:0] $end
   $var wire  4 + rv_hi [3:0] $end
   $var wire  3 * rv_lo [2:0] $end
   $var wire  1 3 rv_prng_clock $end
   $var wire  1 # rv_prng_io_out_0 $end
   $var wire  1 $ rv_prng_io_out_1 $end
   $var wire  1 % rv_prng_io_out_2 $end
   $var wire  1 & rv_prng_io_out_3 $end
   $var wire  1 ' rv_prng_io_out_4 $end
   $var wire  1 ( rv_prng_io_out_5 $end
   $var wire  1 ) rv_prng_io_out_6 $end
   $var wire  1 4 rv_prng_reset $end
   $var wire  7 . seed [6:0] $end
   $var wire  1 - started $end
   $var wire  1 1 wrap $end
   $var wire  7 / wrap_value [6:0] $end
   $var wire  1 0 wrap_wrap_wrap $end
   $scope module rv_prng $end
    $var wire  1 3 clock $end
    $var wire  1 # io_out_0 $end
    $var wire  1 $ io_out_1 $end
    $var wire  1 % io_out_2 $end
    $var wire  1 & io_out_3 $end
    $var wire  1 ' io_out_4 $end
    $var wire  1 ( io_out_5 $end
    $var wire  1 ) io_out_6 $end
    $var wire  1 4 reset $end
    $var wire  1 # state_0 $end
    $var wire  1 $ state_1 $end
    $var wire  1 % state_2 $end
    $var wire  1 & state_3 $end
    $var wire  1 ' state_4 $end
    $var wire  1 ( state_5 $end
    $var wire  1 ) state_6 $end
   $upscope $end
  $upscope $end
 $upscope $end
$enddefinitions $end


#0
0#
0$
0%
0&
0'
0(
0)
b000 *
b0000 +
b0000000 ,
0-
b0000000 .
b0000000 /
00
01
b0000000 2
03
14
#1
1#
b001 *
b0000001 ,
13
#2
#3
#4
#5
#6
03
#7
#8
#9
#10
04
#11
0#
1$
b010 *
b0000010 ,
1-
b0000001 .
b0000001 2
13
#12
#13
#14
#15
#16
03
#17
#18
#19
#20
#21
0$
1%
b100 *
b0000100 ,
b0000001 /
b0000010 2
13
#22
#23
#24
#25
#26
03
#27
#28
#29
#30
#31
0%
1&
b000 *
b0001 +
b0001000 ,
b0000010 /
b0000100 2
13
#32
#33
#34
#35
#36
03
#37
#38
#39
#40
#41
0&
1'
b0010 +
b0010000 ,
b0000011 /
b0001000 2
13
#42
#43
#44
#45
#46
03
#47
#48
#49
#50
#51
0'
1(
b0100 +
b0100000 ,
b0000100 /
b0010000 2
13
#52
#53
#54
#55
#56
03
#57
#58
#59
#60
#61
1#
0(
1)
b001 *
b1000 +
b1000001 ,
b0000101 /
b0100000 2
13
#62
#63
#64
#65
#66
03
#67
#68
#69
#70
#71
1$
0)
b011 *
b0000 +
b0000011 ,
b0000110 /
b1000001 2
13
#72
#73
#74
#75
#76
03
#77
#78
#79
#80
#81
0#
1%
b110 *
b0000110 ,
b0000111 /
b0000011 2
13
#82
#83
#84
#85
#86
03
#87
#88
#89
#90
#91
0$
1&
b100 *
b0001 +
b0001100 ,
b0001000 /
b0000110 2
13
#92
#93
#94
#95
#96
03
#97
#98
#99
#100
#101
0%
1'
b000 *
b0011 +
b0011000 ,
b0001001 /
b0001100 2
13
#102
#103
#104
#105
#106
03
#107
#108
#109
#110
#111
0&
1(
b0110 +
b0110000 ,
b0001010 /
b0011000 2
13
#112
#113
#114
#115
#116
03
#117
#118
#119
#120
#121
1#
0'
1)
b001 *
b1100 +
b1100001 ,
b0001011 /
b0110000 2
13
#122
#123
#124
#125
#126
03
#127
#128
#129
#130
#131
0#
1$
0(
b010 *
b1000 +
b1000010 ,
b0001100 /
b1100001 2
13
#132
#133
#134
#135
#136
03
#137
#138
#139
#140
#141
1#
0$
1%
0)
b101 *
b0000 +
b0000101 ,
b0001101 /
b1000010 2
13
#142
#143
#144
#145
#146
03
#147
#148
#149
#150
#151
0#
1$
0%
1&
b010 *
b0001 +
b0001010 ,
b0001110 /
b0000101 2
13
#152
#153
#154
#155
#156
03
#157
#158
#159
#160
#161
0$
1%
0&
1'
b100 *
b0010 +
b0010100 ,
b0001111 /
b0001010 2
13
#162
#163
#164
#165
#166
03
#167
#168
#169
#170
#171
0%
1&
0'
1(
b000 *
b0101 +
b0101000 ,
b0010000 /
b0010100 2
13
#172
#173
#174
#175
#176
03
#177
#178
#179
#180
#181
1#
0&
1'
0(
1)
b001 *
b1010 +
b1010001 ,
b0010001 /
b0101000 2
13
#182
#183
#184
#185
#186
03
#187
#188
#189
#190
#191
1$
0'
1(
0)
b011 *
b0100 +
b0100011 ,
b0010010 /
b1010001 2
13
#192
#193
#194
#195
#196
03
#197
#198
#199
#200
#201
1%
0(
1)
b111 *
b1000 +
b1000111 ,
b0010011 /
b0100011 2
13
#202
#203
#204
#205
#206
03
#207
#208
#209
#210
#211
1&
0)
b0001 +
b0001111 ,
b0010100 /
b1000111 2
13
#212
#213
#214
#215
#216
03
#217
#218
#219
#220
#221
0#
1'
b110 *
b0011 +
b0011110 ,
b0010101 /
b0001111 2
13
#222
#223
#224
#225
#226
03
#227
#228
#229
#230
#231
0$
1(
b100 *
b0111 +
b0111100 ,
b0010110 /
b0011110 2
13
#232
#233
#234
#235
#236
03
#237
#238
#239
#240
#241
1#
0%
1)
b001 *
b1111 +
b1111001 ,
b0010111 /
b0111100 2
13
#242
#243
#244
#245
#246
03
#247
#248
#249
#250
#251
0#
1$
0&
b010 *
b1110 +
b1110010 ,
b0011000 /
b1111001 2
13
#252
#253
#254
#255
#256
03
#257
#258
#259
#260
#261
0$
1%
0'
b100 *
b1100 +
b1100100 ,
b0011001 /
b1110010 2
13
#262
#263
#264
#265
#266
03
#267
#268
#269
#270
#271
0%
1&
0(
b000 *
b1001 +
b1001000 ,
b0011010 /
b1100100 2
13
#272
#273
#274
#275
#276
03
#277
#278
#279
#280
#281
1#
0&
1'
0)
b001 *
b0010 +
b0010001 ,
b0011011 /
b1001000 2
13
#282
#283
#284
#285
#286
03
#287
#288
#289
#290
#291
0#
1$
0'
1(
b010 *
b0100 +
b0100010 ,
b0011100 /
b0010001 2
13
#292
#293
#294
#295
#296
03
#297
#298
#299
#300
#301
1#
0$
1%
0(
1)
b101 *
b1000 +
b1000101 ,
b0011101 /
b0100010 2
13
#302
#303
#304
#305
#306
03
#307
#308
#309
#310
#311
1$
0%
1&
0)
b011 *
b0001 +
b0001011 ,
b0011110 /
b1000101 2
13
#312
#313
#314
#315
#316
03
#317
#318
#319
#320
#321
0#
1%
0&
1'
b110 *
b0010 +
b0010110 ,
b0011111 /
b0001011 2
13
#322
#323
#324
#325
#326
03
#327
#328
#329
#330
#331
0$
1&
0'
1(
b100 *
b0101 +
b0101100 ,
b0100000 /
b0010110 2
13
#332
#333
#334
#335
#336
03
#337
#338
#339
#340
#341
1#
0%
1'
0(
1)
b001 *
b1011 +
b1011001 ,
b0100001 /
b0101100 2
13
#342
#343
#344
#345
#346
03
#347
#348
#349
#350
#351
1$
0&
1(
0)
b011 *
b0110 +
b0110011 ,
b0100010 /
b1011001 2
13
#352
#353
#354
#355
#356
03
#357
#358
#359
#360
#361
1%
0'
1)
b111 *
b1100 +
b1100111 ,
b0100011 /
b0110011 2
13
#362
#363
#364
#365
#366
03
#367
#368
#369
#370
#371
0#
1&
0(
b110 *
b1001 +
b1001110 ,
b0100100 /
b1100111 2
13
#372
#373
#374
#375
#376
03
#377
#378
#379
#380
#381
1#
0$
1'
0)
b101 *
b0011 +
b0011101 ,
b0100101 /
b1001110 2
13
#382
#383
#384
#385
#386
03
#387
#388
#389
#390
#391
0#
1$
0%
1(
b010 *
b0111 +
b0111010 ,
b0100110 /
b0011101 2
13
#392
#393
#394
#395
#396
03
#397
#398
#399
#400
#401
1#
0$
1%
0&
1)
b101 *
b1110 +
b1110101 ,
b0100111 /
b0111010 2
13
#402
#403
#404
#405
#406
03
#407
#408
#409
#410
#411
0#
1$
0%
1&
0'
b010 *
b1101 +
b1101010 ,
b0101000 /
b1110101 2
13
#412
#413
#414
#415
#416
03
#417
#418
#419
#420
#421
0$
1%
0&
1'
0(
b100 *
b1010 +
b1010100 ,
b0101001 /
b1101010 2
13
#422
#423
#424
#425
#426
03
#427
#428
#429
#430
#431
1#
0%
1&
0'
1(
0)
b001 *
b0101 +
b0101001 ,
b0101010 /
b1010100 2
13
#432
#433
#434
#435
#436
03
#437
#438
#439
#440
#441
1$
0&
1'
0(
1)
b011 *
b1010 +
b1010011 ,
b0101011 /
b0101001 2
13
#442
#443
#444
#445
#446
03
#447
#448
#449
#450
#451
1%
0'
1(
0)
b111 *
b0100 +
b0100111 ,
b0101100 /
b1010011 2
13
#452
#453
#454
#455
#456
03
#457
#458
#459
#460
#461
1&
0(
1)
b1001 +
b1001111 ,
b0101101 /
b0100111 2
13
#462
#463
#464
#465
#466
03
#467
#468
#469
#470
#471
1'
0)
b0011 +
b0011111 ,
b0101110 /
b1001111 2
13
#472
#473
#474
#475
#476
03
#477
#478
#479
#480
#481
0#
1(
b110 *
b0111 +
b0111110 ,
b0101111 /
b0011111 2
13
#482
#483
#484
#485
#486
03
#487
#488
#489
#490
#491
1#
0$
1)
b101 *
b1111 +
b1111101 ,
b0110000 /
b0111110 2
13
#492
#493
#494
#495
#496
03
#497
#498
#499
#500
#501
0#
1$
0%
b010 *
b1111010 ,
b0110001 /
b1111101 2
13
#502
#503
#504
#505
#506
03
#507
#508
#509
#510
#511
0$
1%
0&
b100 *
b1110 +
b1110100 ,
b0110010 /
b1111010 2
13
#512
#513
#514
#515
#516
03
#517
#518
#519
#520
#521
0%
1&
0'
b000 *
b1101 +
b1101000 ,
b0110011 /
b1110100 2
13
#522
#523
#524
#525
#526
03
#527
#528
#529
#530
#531
0&
1'
0(
b1010 +
b1010000 ,
b0110100 /
b1101000 2
13
#532
#533
#534
#535
#536
03
#537
#538
#539
#540
#541
1#
0'
1(
0)
b001 *
b0100 +
b0100001 ,
b0110101 /
b1010000 2
13
#542
#543
#544
#545
#546
03
#547
#548
#549
#550
#551
1$
0(
1)
b011 *
b1000 +
b1000011 ,
b0110110 /
b0100001 2
13
#552
#553
#554
#555
#556
03
#557
#558
#559
#560
#561
1%
0)
b111 *
b0000 +
b0000111 ,
b0110111 /
b1000011 2
13
#562
#563
#564
#565
#566
03
#567
#568
#569
#570
#571
0#
1&
b110 *
b0001 +
b0001110 ,
b0111000 /
b0000111 2
13
#572
#573
#574
#575
#576
03
#577
#578
#579
#580
#581
0$
1'
b100 *
b0011 +
b0011100 ,
b0111001 /
b0001110 2
13
#582
#583
#584
#585
#586
03
#587
#588
#589
#590
#591
0%
1(
b000 *
b0111 +
b0111000 ,
b0111010 /
b0011100 2
13
#592
#593
#594
#595
#596
03
#597
#598
#599
#600
#601
1#
0&
1)
b001 *
b1110 +
b1110001 ,
b0111011 /
b0111000 2
13
#602
#603
#604
#605
#606
03
#607
#608
#609
#610
#611
0#
1$
0'
b010 *
b1100 +
b1100010 ,
b0111100 /
b1110001 2
13
#612
#613
#614
#615
#616
03
#617
#618
#619
#620
#621
0$
1%
0(
b100 *
b1000 +
b1000100 ,
b0111101 /
b1100010 2
13
#622
#623
#624
#625
#626
03
#627
#628
#629
#630
#631
1#
0%
1&
0)
b001 *
b0001 +
b0001001 ,
b0111110 /
b1000100 2
13
#632
#633
#634
#635
#636
03
#637
#638
#639
#640
#641
0#
1$
0&
1'
b010 *
b0010 +
b0010010 ,
b0111111 /
b0001001 2
13
#642
#643
#644
#645
#646
03
#647
#648
#649
#650
#651
0$
1%
0'
1(
b100 *
b0100 +
b0100100 ,
b1000000 /
b0010010 2
13
#652
#653
#654
#655
#656
03
#657
#658
#659
#660
#661
1#
0%
1&
0(
1)
b001 *
b1001 +
b1001001 ,
b1000001 /
b0100100 2
13
#662
#663
#664
#665
#666
03
#667
#668
#669
#670
#671
1$
0&
1'
0)
b011 *
b0010 +
b0010011 ,
b1000010 /
b1001001 2
13
#672
#673
#674
#675
#676
03
#677
#678
#679
#680
#681
0#
1%
0'
1(
b110 *
b0100 +
b0100110 ,
b1000011 /
b0010011 2
13
#682
#683
#684
#685
#686
03
#687
#688
#689
#690
#691
1#
0$
1&
0(
1)
b101 *
b1001 +
b1001101 ,
b1000100 /
b0100110 2
13
#692
#693
#694
#695
#696
03
#697
#698
#699
#700
#701
1$
0%
1'
0)
b011 *
b0011 +
b0011011 ,
b1000101 /
b1001101 2
13
#702
#703
#704
#705
#706
03
#707
#708
#709
#710
#711
0#
1%
0&
1(
b110 *
b0110 +
b0110110 ,
b1000110 /
b0011011 2
13
#712
#713
#714
#715
#716
03
#717
#718
#719
#720
#721
1#
0$
1&
0'
1)
b101 *
b1101 +
b1101101 ,
b1000111 /
b0110110 2
13
#722
#723
#724
#725
#726
03
#727
#728
#729
#730
#731
0#
1$
0%
1'
0(
b010 *
b1011 +
b1011010 ,
b1001000 /
b1101101 2
13
#732
#733
#734
#735
#736
03
#737
#738
#739
#740
#741
1#
0$
1%
0&
1(
0)
b101 *
b0110 +
b0110101 ,
b1001001 /
b1011010 2
13
#742
#743
#744
#745
#746
03
#747
#748
#749
#750
#751
1$
0%
1&
0'
1)
b011 *
b1101 +
b1101011 ,
b1001010 /
b0110101 2
13
#752
#753
#754
#755
#756
03
#757
#758
#759
#760
#761
0#
1%
0&
1'
0(
b110 *
b1010 +
b1010110 ,
b1001011 /
b1101011 2
13
#762
#763
#764
#765
#766
03
#767
#768
#769
#770
#771
1#
0$
1&
0'
1(
0)
b101 *
b0101 +
b0101101 ,
b1001100 /
b1010110 2
13
#772
#773
#774
#775
#776
03
#777
#778
#779
#780
#781
1$
0%
1'
0(
1)
b011 *
b1011 +
b1011011 ,
b1001101 /
b0101101 2
13
#782
#783
#784
#785
#786
03
#787
#788
#789
#790
#791
1%
0&
1(
0)
b111 *
b0110 +
b0110111 ,
b1001110 /
b1011011 2
13
#792
#793
#794
#795
#796
03
#797
#798
#799
#800
#801
1&
0'
1)
b1101 +
b1101111 ,
b1001111 /
b0110111 2
13
#802
#803
#804
#805
#806
03
#807
#808
#809
#810
#811
0#
1'
0(
b110 *
b1011 +
b1011110 ,
b1010000 /
b1101111 2
13
#812
#813
#814
#815
#816
03
#817
#818
#819
#820
#821
1#
0$
1(
0)
b101 *
b0111 +
b0111101 ,
b1010001 /
b1011110 2
13
#822
#823
#824
#825
#826
03
#827
#828
#829
#830
#831
1$
0%
1)
b011 *
b1111 +
b1111011 ,
b1010010 /
b0111101 2
13
#832
#833
#834
#835
#836
03
#837
#838
#839
#840
#841
0#
1%
0&
b110 *
b1110 +
b1110110 ,
b1010011 /
b1111011 2
13
#842
#843
#844
#845
#846
03
#847
#848
#849
#850
#851
0$
1&
0'
b100 *
b1101 +
b1101100 ,
b1010100 /
b1110110 2
13
#852
#853
#854
#855
#856
03
#857
#858
#859
#860
#861
0%
1'
0(
b000 *
b1011 +
b1011000 ,
b1010101 /
b1101100 2
13
#862
#863
#864
#865
#866
03
#867
#868
#869
#870
#871
1#
0&
1(
0)
b001 *
b0110 +
b0110001 ,
b1010110 /
b1011000 2
13
#872
#873
#874
#875
#876
03
#877
#878
#879
#880
#881
1$
0'
1)
b011 *
b1100 +
b1100011 ,
b1010111 /
b0110001 2
13
#882
#883
#884
#885
#886
03
#887
#888
#889
#890
#891
0#
1%
0(
b110 *
b1000 +
b1000110 ,
b1011000 /
b1100011 2
13
#892
#893
#894
#895
#896
03
#897
#898
#899
#900
#901
1#
0$
1&
0)
b101 *
b0001 +
b0001101 ,
b1011001 /
b1000110 2
13
#902
#903
#904
#905
#906
03
#907
#908
#909
#910
#911
0#
1$
0%
1'
b010 *
b0011 +
b0011010 ,
b1011010 /
b0001101 2
13
#912
#913
#914
#915
#916
03
#917
#918
#919
#920
#921
0$
1%
0&
1(
b100 *
b0110 +
b0110100 ,
b1011011 /
b0011010 2
13
#922
#923
#924
#925
#926
03
#927
#928
#929
#930
#931
1#
0%
1&
0'
1)
b001 *
b1101 +
b1101001 ,
b1011100 /
b0110100 2
13
#932
#933
#934
#935
#936
03
#937
#938
#939
#940
#941
0#
1$
0&
1'
0(
b010 *
b1010 +
b1010010 ,
b1011101 /
b1101001 2
13
#942
#943
#944
#945
#946
03
#947
#948
#949
#950
#951
1#
0$
1%
0'
1(
0)
b101 *
b0100 +
b0100101 ,
b1011110 /
b1010010 2
13
#952
#953
#954
#955
#956
03
#957
#958
#959
#960
#961
1$
0%
1&
0(
1)
b011 *
b1001 +
b1001011 ,
b1011111 /
b0100101 2
13
#962
#963
#964
#965
#966
03
#967
#968
#969
#970
#971
1%
0&
1'
0)
b111 *
b0010 +
b0010111 ,
b1100000 /
b1001011 2
13
#972
#973
#974
#975
#976
03
#977
#978
#979
#980
#981
0#
1&
0'
1(
b110 *
b0101 +
b0101110 ,
b1100001 /
b0010111 2
13
#982
#983
#984
#985
#986
03
#987
#988
#989
#990
#991
1#
0$
1'
0(
1)
b101 *
b1011 +
b1011101 ,
b1100010 /
b0101110 2
13
#992
#993
#994
#995
#996
03
#997
#998
#999
#1000
#1001
1$
0%
1(
0)
b011 *
b0111 +
b0111011 ,
b1100011 /
b1011101 2
13
#1002
#1003
#1004
#1005
#1006
03
#1007
#1008
#1009
#1010
#1011
1%
0&
1)
b111 *
b1110 +
b1110111 ,
b1100100 /
b0111011 2
13
#1012
#1013
#1014
#1015
#1016
03
#1017
#1018
#1019
#1020
#1021
0#
1&
0'
b110 *
b1101 +
b1101110 ,
b1100101 /
b1110111 2
13
#1022
#1023
#1024
#1025
#1026
03
#1027
#1028
#1029
#1030
#1031
0$
1'
0(
b100 *
b1011 +
b1011100 ,
b1100110 /
b1101110 2
13
#1032
#1033
#1034
#1035
#1036
03
#1037
#1038
#1039
#1040
#1041
1#
0%
1(
0)
b001 *
b0111 +
b0111001 ,
b1100111 /
b1011100 2
13
#1042
#1043
#1044
#1045
#1046
03
#1047
#1048
#1049
#1050
#1051
1$
0&
1)
b011 *
b1110 +
b1110011 ,
b1101000 /
b0111001 2
13
#1052
#1053
#1054
#1055
#1056
03
#1057
#1058
#1059
#1060
#1061
0#
1%
0'
b110 *
b1100 +
b1100110 ,
b1101001 /
b1110011 2
13
#1062
#1063
#1064
#1065
#1066
03
#1067
#1068
#1069
#1070
#1071
0$
1&
0(
b100 *
b1001 +
b1001100 ,
b1101010 /
b1100110 2
13
#1072
#1073
#1074
#1075
#1076
03
#1077
#1078
#1079
#1080
#1081
1#
0%
1'
0)
b001 *
b0011 +
b0011001 ,
b1101011 /
b1001100 2
13
#1082
#1083
#1084
#1085
#1086
03
#1087
#1088
#1089
#1090
#1091
0#
1$
0&
1(
b010 *
b0110 +
b0110010 ,
b1101100 /
b0011001 2
13
#1092
#1093
#1094
#1095
#1096
03
#1097
#1098
#1099
#1100
#1101
1#
0$
1%
0'
1)
b101 *
b1100 +
b1100101 ,
b1101101 /
b0110010 2
13
#1102
#1103
#1104
#1105
#1106
03
#1107
#1108
#1109
#1110
#1111
0#
1$
0%
1&
0(
b010 *
b1001 +
b1001010 ,
b1101110 /
b1100101 2
13
#1112
#1113
#1114
#1115
#1116
03
#1117
#1118
#1119
#1120
#1121
1#
0$
1%
0&
1'
0)
b101 *
b0010 +
b0010101 ,
b1101111 /
b1001010 2
13
#1122
#1123
#1124
#1125
#1126
03
#1127
#1128
#1129
#1130
#1131
0#
1$
0%
1&
0'
1(
b010 *
b0101 +
b0101010 ,
b1110000 /
b0010101 2
13
#1132
#1133
#1134
#1135
#1136
03
#1137
#1138
#1139
#1140
#1141
1#
0$
1%
0&
1'
0(
1)
b101 *
b1010 +
b1010101 ,
b1110001 /
b0101010 2
13
#1142
#1143
#1144
#1145
#1146
03
#1147
#1148
#1149
#1150
#1151
1$
0%
1&
0'
1(
0)
b011 *
b0101 +
b0101011 ,
b1110010 /
b1010101 2
13
#1152
#1153
#1154
#1155
#1156
03
#1157
#1158
#1159
#1160
#1161
1%
0&
1'
0(
1)
b111 *
b1010 +
b1010111 ,
b1110011 /
b0101011 2
13
#1162
#1163
#1164
#1165
#1166
03
#1167
#1168
#1169
#1170
#1171
1&
0'
1(
0)
b0101 +
b0101111 ,
b1110100 /
b1010111 2
13
#1172
#1173
#1174
#1175
#1176
03
#1177
#1178
#1179
#1180
#1181
1'
0(
1)
b1011 +
b1011111 ,
b1110101 /
b0101111 2
13
#1182
#1183
#1184
#1185
#1186
03
#1187
#1188
#1189
#1190
#1191
1(
0)
b0111 +
b0111111 ,
b1110110 /
b1011111 2
13
#1192
#1193
#1194
#1195
#1196
03
#1197
#1198
#1199
#1200
#1201
1)
b1111 +
b1111111 ,
b1110111 /
b0111111 2
13
#1202
#1203
#1204
#1205
#1206
03
#1207
#1208
#1209
#1210
#1211
0#
b110 *
b1111110 ,
b1111000 /
b1111111 2
13
#1212
#1213
#1214
#1215
#1216
03
#1217
#1218
#1219
#1220
#1221
0$
b100 *
b1111100 ,
b1111001 /
b1111110 2
13
#1222
#1223
#1224
#1225
#1226
03
#1227
#1228
#1229
#1230
#1231
0%
b000 *
b1111000 ,
b1111010 /
b1111100 2
13
#1232
#1233
#1234
#1235
#1236
03
#1237
#1238
#1239
#1240
#1241
0&
b1110 +
b1110000 ,
b1111011 /
b1111000 2
13
#1242
#1243
#1244
#1245
#1246
03
#1247
#1248
#1249
#1250
#1251
0'
b1100 +
b1100000 ,
b1111100 /
b1110000 2
13
#1252
#1253
#1254
#1255
#1256
03
#1257
#1258
#1259
#1260
#1261
0(
b1000 +
b1000000 ,
b1111101 /
b1100000 2
13
#1262
#1263
#1264
#1265
#1266
03
#1267
#1268
#1269
#1270
#1271
1#
0)
b001 *
b0000 +
b0000001 ,
b1111110 /
10
11
b1000000 2
13
