chisel3/test_run_dir/ThingsPassThroughFlushQueueTester/202203291508278264722146330335040/dump.vcd
$version Generated by VerilatedVcd $end
$date Tue Mar 29 15:08:45 2022 $end
$timescale 1ps $end

 $scope module TOP $end
  $var wire  1 D clock $end
  $var wire  1 E reset $end
  $scope module ThingsPassThroughFlushQueueTester $end
   $var wire  1 D clock $end
   $var wire  1 D q_clock $end
   $var wire  2 ( q_io_deq_bits [1:0] $end
   $var wire  1 & q_io_deq_ready $end
   $var wire  8 ; q_io_deq_ready_lo [7:0] $end
   $var wire  1 D q_io_deq_ready_prng_clock $end
   $var wire  1 ) q_io_deq_ready_prng_io_out_0 $end
   $var wire  1 * q_io_deq_ready_prng_io_out_1 $end
   $var wire  1 3 q_io_deq_ready_prng_io_out_10 $end
   $var wire  1 4 q_io_deq_ready_prng_io_out_11 $end
   $var wire  1 5 q_io_deq_ready_prng_io_out_12 $end
   $var wire  1 6 q_io_deq_ready_prng_io_out_13 $end
   $var wire  1 7 q_io_deq_ready_prng_io_out_14 $end
   $var wire  1 8 q_io_deq_ready_prng_io_out_15 $end
   $var wire  1 + q_io_deq_ready_prng_io_out_2 $end
   $var wire  1 , q_io_deq_ready_prng_io_out_3 $end
   $var wire  1 - q_io_deq_ready_prng_io_out_4 $end
   $var wire  1 . q_io_deq_ready_prng_io_out_5 $end
   $var wire  1 / q_io_deq_ready_prng_io_out_6 $end
   $var wire  1 0 q_io_deq_ready_prng_io_out_7 $end
   $var wire  1 1 q_io_deq_ready_prng_io_out_8 $end
   $var wire  1 2 q_io_deq_ready_prng_io_out_9 $end
   $var wire  1 E q_io_deq_ready_prng_reset $end
   $var wire  1 ' q_io_deq_valid $end
   $var wire  2 % q_io_enq_bits [1:0] $end
   $var wire  1 # q_io_enq_ready $end
   $var wire  1 $ q_io_enq_valid $end
   $var wire  1 E q_reset $end
   $var wire  1 E reset $end
   $var wire  5 9 value [4:0] $end
   $var wire  5 : value_1 [4:0] $end
   $var wire  1 < wrap $end
   $var wire  1 = wrap_1 $end
   $scope module q $end
    $var wire  1 D clock $end
    $var wire  1 C do_deq $end
    $var wire  1 B do_enq $end
    $var wire  1 # empty $end
    $var wire  2 ( io_deq_bits [1:0] $end
    $var wire  1 & io_deq_ready $end
    $var wire  1 ' io_deq_valid $end
    $var wire  2 % io_enq_bits [1:0] $end
    $var wire  1 # io_enq_ready $end
    $var wire  1 $ io_enq_valid $end
    $var wire  1 ' maybe_full $end
    $var wire  2 > ram[0] [1:0] $end
    $var wire  1 F ram_MPORT_addr $end
    $var wire  2 % ram_MPORT_data [1:0] $end
    $var wire  1 A ram_MPORT_en $end
    $var wire  1 G ram_MPORT_mask $end
    $var wire  1 @ ram_io_deq_bits_MPORT_addr $end
    $var wire  1 @ ram_io_deq_bits_MPORT_addr_pipe_0 $end
    $var wire  2 ( ram_io_deq_bits_MPORT_data [1:0] $end
    $var wire  1 ? ram_io_deq_bits_MPORT_en $end
    $var wire  1 ? ram_io_deq_bits_MPORT_en_pipe_0 $end
    $var wire  1 E reset $end
   $upscope $end
   $scope module q_io_deq_ready_prng $end
    $var wire  1 D clock $end
    $var wire  1 ) io_out_0 $end
    $var wire  1 * io_out_1 $end
    $var wire  1 3 io_out_10 $end
    $var wire  1 4 io_out_11 $end
    $var wire  1 5 io_out_12 $end
    $var wire  1 6 io_out_13 $end
    $var wire  1 7 io_out_14 $end
    $var wire  1 8 io_out_15 $end
    $var wire  1 + io_out_2 $end
    $var wire  1 , io_out_3 $end
    $var wire  1 - io_out_4 $end
    $var wire  1 . io_out_5 $end
    $var wire  1 / io_out_6 $end
    $var wire  1 0 io_out_7 $end
    $var wire  1 1 io_out_8 $end
    $var wire  1 2 io_out_9 $end
    $var wire  1 E reset $end
    $var wire  1 ) state_0 $end
    $var wire  1 * state_1 $end
    $var wire  1 3 state_10 $end
    $var wire  1 4 state_11 $end
    $var wire  1 5 state_12 $end
    $var wire  1 6 state_13 $end
    $var wire  1 7 state_14 $end
    $var wire  1 8 state_15 $end
    $var wire  1 + state_2 $end
    $var wire  1 , state_3 $end
    $var wire  1 - state_4 $end
    $var wire  1 . state_5 $end
    $var wire  1 / state_6 $end
    $var wire  1 0 state_7 $end
    $var wire  1 1 state_8 $end
    $var wire  1 2 state_9 $end
   $upscope $end
  $upscope $end
 $upscope $end
$enddefinitions $end


#0
1#
1$
b11 %
0&
0'
b00 (
0)
0*
0+
0,
0-
0.
0/
00
01
02
03
04
05
06
07
08
b00000 9
b00000 :
b00000000 ;
0<
0=
b00 >
0?
0@
1A
1B
0C
0D
1E
0F
1G
#1
b11 (
1)
b00000001 ;
b11 >
1?
1D
#2
#3
#4
#5
#6
0D
#7
#8
#9
#10
0E
#11
0#
b10 %
1'
0)
1*
b00001 9
b00000010 ;
0A
0B
1D
#12
#13
#14
#15
#16
0D
#17
#18
#19
#20
#21
0*
1+
b00000100 ;
1D
#22
#23
#24
#25
#26
0D
#27
#28
#29
#30
#31
0+
1,
b00001000 ;
1D
#32
#33
#34
#35
#36
0D
#37
#38
#39
#40
#41
1&
0,
1-
b00010000 ;
1C
1D
#42
#43
#44
#45
#46
0D
#47
#48
#49
#50
#51
1#
0&
0'
0-
1.
b00001 :
b00100000 ;
1A
1B
0C
1D
#52
#53
#54
#55
#56
0D
#57
#58
#59
#60
#61
0#
b00 %
1'
b10 (
0.
1/
b00010 9
b01000000 ;
b10 >
0A
0B
1D
#62
#63
#64
#65
#66
0D
#67
#68
#69
#70
#71
0/
10
b10000000 ;
1D
#72
#73
#74
#75
#76
0D
#77
#78
#79
#80
#81
00
11
b00000000 ;
1D
#82
#83
#84
#85
#86
0D
#87
#88
#89
#90
#91
01
12
1D
#92
#93
#94
#95
#96
0D
#97
#98
#99
#100
#101
02
13
1D
#102
#103
#104
#105
#106
0D
#107
#108
#109
#110
#111
1)
03
14
b00000001 ;
1D
#112
#113
#114
#115
#116
0D
#117
#118
#119
#120
#121
0)
1*
04
15
b00000010 ;
1D
#122
#123
#124
#125
#126
0D
#127
#128
#129
#130
#131
1)
0*
1+
05
16
b00000101 ;
1D
#132
#133
#134
#135
#136
0D
#137
#138
#139
#140
#141
1*
0+
1,
06
17
b00001011 ;
1D
#142
#143
#144
#145
#146
0D
#147
#148
#149
#150
#151
1&
0)
1+
0,
1-
07
18
b00010110 ;
1C
1D
#152
#153
#154
#155
#156
0D
#157
#158
#159
#160
#161
1#
0&
0'
1)
0*
1,
0-
1.
08
b00010 :
b00101101 ;
1A
1B
0C
1D
#162
#163
#164
#165
#166
0D
#167
#168
#169
#170
#171
0#
b11 %
1&
1'
b00 (
0)
1*
0+
1-
0.
1/
b00011 9
b01011010 ;
b00 >
0A
0B
1C
1D
#172
#173
#174
#175
#176
0D
#177
#178
#179
#180
#181
1#
0'
0*
1+
0,
1.
0/
10
b00011 :
b10110100 ;
1A
1B
0C
1D
#182
#183
#184
#185
#186
0D
#187
#188
#189
#190
#191
0#
b00 %
0&
1'
b11 (
0+
1,
0-
1/
00
11
b00100 9
b01101000 ;
b11 >
0A
0B
1D
#192
#193
#194
#195
#196
0D
#197
#198
#199
#200
#201
1&
0,
1-
0.
10
01
12
b11010000 ;
1C
1D
#202
#203
#204
#205
#206
0D
#207
#208
#209
#210
#211
1#
0&
0'
0-
1.
0/
11
02
13
b00100 :
b10100000 ;
1A
1B
0C
1D
#212
#213
#214
#215
#216
0D
#217
#218
#219
#220
#221
0#
b01 %
1'
b00 (
1)
0.
1/
00
12
03
14
b00101 9
b01000001 ;
b00 >
0A
0B
1D
#222
#223
#224
#225
#226
0D
#227
#228
#229
#230
#231
0)
1*
0/
10
01
13
04
15
b10000010 ;
1D
#232
#233
#234
#235
#236
0D
#237
#238
#239
#240
#241
0*
1+
00
11
02
14
05
16
b00000100 ;
1D
#242
#243
#244
#245
#246
0D
#247
#248
#249
#250
#251
0+
1,
01
12
03
15
06
17
b00001000 ;
1D
#252
#253
#254
#255
#256
0D
#257
#258
#259
#260
#261
1&
1)
0,
1-
02
13
04
16
07
18
b00010001 ;
1C
1D
#262
#263
#264
#265
#266
0D
#267
#268
#269
#270
#271
1#
0&
0'
0)
1*
0-
1.
03
14
05
17
08
b00101 :
b00100010 ;
1A
1B
0C
1D
#272
#273
#274
#275
#276
0D
#277
#278
#279
#280
#281
0#
b10 %
1'
b01 (
1)
0*
1+
0.
1/
04
15
06
18
b00110 9
b01000101 ;
b01 >
0A
0B
1D
#282
#283
#284
#285
#286
0D
#287
#288
#289
#290
#291
0)
1*
0+
1,
0/
10
05
16
07
b10001010 ;
1D
#292
#293
#294
#295
#296
0D
#297
#298
#299
#300
#301
1&
0*
1+
0,
1-
00
11
06
17
08
b00010100 ;
1C
1D
#302
#303
#304
#305
#306
0D
#307
#308
#309
#310
#311
1#
0&
0'
0+
1,
0-
1.
01
12
07
18
b00110 :
b00101000 ;
1A
1B
0C
1D
#312
#313
#314
#315
#316
0D
#317
#318
#319
#320
#321
0#
b00 %
1&
1'
b10 (
1)
0,
1-
0.
1/
02
13
08
b00111 9
b01010001 ;
b10 >
0A
0B
1C
1D
#322
#323
#324
#325
#326
0D
#327
#328
#329
#330
#331
1#
0&
0'
1*
0-
1.
0/
10
03
14
b00111 :
b10100011 ;
1A
1B
0C
1D
#332
#333
#334
#335
#336
0D
#337
#338
#339
#340
#341
0#
1'
b00 (
0)
1+
0.
1/
00
11
04
15
b01000 9
b01000110 ;
b00 >
0A
0B
1D
#342
#343
#344
#345
#346
0D
#347
#348
#349
#350
#351
1)
0*
1,
0/
10
01
12
05
16
b10001101 ;
1D
#352
#353
#354
#355
#356
0D
#357
#358
#359
#360
#361
1&
1*
0+
1-
00
11
02
13
06
17
b00011011 ;
1C
1D
#362
#363
#364
#365
#366
0D
#367
#368
#369
#370
#371
1#
0'
1+
0,
1.
01
12
03
14
07
18
b01000 :
b00110111 ;
1A
1B
0C
1D
#372
#373
#374
#375
#376
0D
#377
#378
#379
#380
#381
0#
b11 %
0&
1'
1,
0-
1/
02
13
04
15
08
b01001 9
b01101111 ;
0A
0B
1D
#382
#383
#384
#385
#386
0D
#387
#388
#389
#390
#391
1&
0)
1-
0.
10
03
14
05
16
b11011110 ;
1C
1D
#392
#393
#394
#395
#396
0D
#397
#398
#399
#400
#401
1#
0'
1)
0*
1.
0/
11
04
15
06
17
b01001 :
b10111101 ;
1A
1B
0C
1D
#402
#403
#404
#405
#406
0D
#407
#408
#409
#410
#411
0#
b00 %
1'
b11 (
1*
0+
1/
00
12
05
16
07
18
b01010 9
b01111011 ;
b11 >
0A
0B
1C
1D
#412
#413
#414
#415
#416
0D
#417
#418
#419
#420
#421
1#
0'
0)
1+
0,
10
01
13
06
17
08
b01010 :
b11110110 ;
1A
1B
0C
1D
#422
#423
#424
#425
#426
0D
#427
#428
#429
#430
#431
0#
b10 %
0&
1'
b00 (
1)
0*
1,
0-
11
02
14
07
18
b01011 9
b11101101 ;
b00 >
0A
0B
1D
#432
#433
#434
#435
#436
0D
#437
#438
#439
#440
#441
1&
0)
1*
0+
1-
0.
12
03
15
08
b11011010 ;
1C
1D
#442
#443
#444
#445
#446
0D
#447
#448
#449
#450
#451
1#
0'
1)
0*
1+
0,
1.
0/
13
04
16
b01011 :
b10110101 ;
1A
1B
0C
1D
#452
#453
#454
#455
#456
0D
#457
#458
#459
#460
#461
0#
b00 %
0&
1'
b10 (
1*
0+
1,
0-
1/
00
14
05
17
b01100 9
b01101011 ;
b10 >
0A
0B
1D
#462
#463
#464
#465
#466
0D
#467
#468
#469
#470
#471
1&
0)
1+
0,
1-
0.
10
01
15
06
18
b11010110 ;
1C
1D
#472
#473
#474
#475
#476
0D
#477
#478
#479
#480
#481
1#
0&
0'
1)
0*
1,
0-
1.
0/
11
02
16
07
b01100 :
b10101101 ;
1A
1B
0C
1D
#482
#483
#484
#485
#486
0D
#487
#488
#489
#490
#491
0#
b01 %
1&
1'
b00 (
0)
1*
0+
1-
0.
1/
00
12
03
17
08
b01101 9
b01011010 ;
b00 >
0A
0B
1C
1D
#492
#493
#494
#495
#496
0D
#497
#498
#499
#500
#501
1#
0'
0*
1+
0,
1.
0/
10
01
13
04
18
b01101 :
b10110100 ;
1A
1B
0C
1D
#502
#503
#504
#505
#506
0D
#507
#508
#509
#510
#511
0#
b10 %
0&
1'
b01 (
0+
1,
0-
1/
00
11
02
14
05
b01110 9
b01101000 ;
b01 >
0A
0B
1D
#512
#513
#514
#515
#516
0D
#517
#518
#519
#520
#521
1&
1)
0,
1-
0.
10
01
12
03
15
06
b11010001 ;
1C
1D
#522
#523
#524
#525
#526
0D
#527
#528
#529
#530
#531
1#
0&
0'
0)
1*
0-
1.
0/
11
02
13
04
16
07
b01110 :
b10100010 ;
1A
1B
0C
1D
#532
#533
#534
#535
#536
0D
#537
#538
#539
#540
#541
0#
b01 %
1'
b10 (
0*
1+
0.
1/
00
12
03
14
05
17
08
b01111 9
b01000100 ;
b10 >
0A
0B
1D
#542
#543
#544
#545
#546
0D
#547
#548
#549
#550
#551
1)
0+
1,
0/
10
01
13
04
15
06
18
b10001001 ;
1D
#552
#553
#554
#555
#556
0D
#557
#558
#559
#560
#561
1&
1*
0,
1-
00
11
02
14
05
16
07
b00010011 ;
1C
1D
#562
#563
#564
#565
#566
0D
#567
#568
#569
#570
#571
1#
0&
0'
1+
0-
1.
01
12
03
15
06
17
08
b01111 :
b00100111 ;
1A
1B
0C
1D
#572
#573
#574
#575
#576
0D
#577
#578
#579
#580
#581
0#
b00 %
1'
b01 (
1,
0.
1/
02
13
04
16
07
18
b10000 9
b01001111 ;
b01 >
0A
0B
1D
#582
#583
#584
#585
#586
0D
#587
#588
#589
#590
#591
1&
0)
1-
0/
10
03
14
05
17
08
b10011110 ;
1C
1D
#592
#593
#594
#595
#596
0D
#597
#598
#599
#600
#601
1#
0'
1)
0*
1.
00
11
04
15
06
18
b10000 :
b00111101 ;
1A
1B
0C
1D
#602
#603
#604
#605
#606
0D
#607
#608
#609
#610
#611
0#
1'
b00 (
0)
1*
0+
1/
01
12
05
16
07
b10001 9
b01111010 ;
b00 >
0A
0B
1C
1D
#612
#613
#614
#615
#616
0D
#617
#618
#619
#620
#621
1#
0'
0*
1+
0,
10
02
13
06
17
08
b10001 :
b11110100 ;
1A
1B
0C
1D
#622
#623
#624
#625
#626
0D
#627
#628
#629
#630
#631
0#
0&
1'
1)
0+
1,
0-
11
03
14
07
18
b10010 9
b11101001 ;
0A
0B
1D
#632
#633
#634
#635
#636
0D
#637
#638
#639
#640
#641
1&
1*
0,
1-
0.
12
04
15
08
b11010011 ;
1C
1D
#642
#643
#644
#645
#646
0D
#647
#648
#649
#650
#651
1#
0&
0'
1+
0-
1.
0/
13
05
16
b10010 :
b10100111 ;
1A
1B
0C
1D
#652
#653
#654
#655
#656
0D
#657
#658
#659
#660
#661
0#
b11 %
1'
0)
1,
0.
1/
00
14
06
17
b10011 9
b01001110 ;
0A
0B
1D
#662
#663
#664
#665
#666
0D
#667
#668
#669
#670
#671
1&
1)
0*
1-
0/
10
01
15
07
18
b10011101 ;
1C
1D
#672
#673
#674
#675
#676
0D
#677
#678
#679
#680
#681
1#
0'
1*
0+
1.
00
11
02
16
08
b10011 :
b00111011 ;
1A
1B
0C
1D
#682
#683
#684
#685
#686
0D
#687
#688
#689
#690
#691
0#
0$
1'
b11 (
1+
0,
1/
01
12
03
17
b10100 9
b01110111 ;
1<
b11 >
0A
0B
1C
1D
#692
#693
#694
#695
#696
0D
#697
#698
#699
#700
#701
1#
0&
0'
0)
1,
0-
10
02
13
04
18
b10100 :
b11101110 ;
1=
0C
1D
