chisel3/test_run_dir/DequeueFullQueueEdgecaseTester/202203291521345565559320634886130/dump.vcd
$version Generated by VerilatedVcd $end
$date Tue Mar 29 15:21:52 2022 $end
$timescale 1ps $end

 $scope module TOP $end
  $var wire  1 > clock $end
  $var wire  1 ? reset $end
  $scope module DequeueFullQueueEdgecaseTester $end
   $var wire  1 > clock $end
   $var wire  3 , currQCnt [2:0] $end
   $var wire  1 & flush $end
   $var wire  1 - flushRegister $end
   $var wire  5 + outCnt [4:0] $end
   $var wire  1 > q_clock $end
   $var wire  2 ) q_io_count [1:0] $end
   $var wire  4 ( q_io_deq_bits [3:0] $end
   $var wire  1 & q_io_deq_ready $end
   $var wire  1 ' q_io_deq_valid $end
   $var wire  4 % q_io_enq_bits [3:0] $end
   $var wire  1 # q_io_enq_ready $end
   $var wire  1 $ q_io_enq_valid $end
   $var wire  1 & q_io_flush $end
   $var wire  1 ? q_reset $end
   $var wire  1 ? reset $end
   $var wire  5 * value [4:0] $end
   $var wire  1 . wrap $end
   $scope module q $end
    $var wire  1 > clock $end
    $var wire  2 2 deq_ptr_value [1:0] $end
    $var wire  1 : do_deq $end
    $var wire  1 9 do_enq $end
    $var wire  1 7 empty $end
    $var wire  2 3 enq_ptr_value [1:0] $end
    $var wire  1 8 full $end
    $var wire  2 ) io_count [1:0] $end
    $var wire  4 ( io_deq_bits [3:0] $end
    $var wire  1 & io_deq_ready $end
    $var wire  1 ' io_deq_valid $end
    $var wire  4 % io_enq_bits [3:0] $end
    $var wire  1 # io_enq_ready $end
    $var wire  1 $ io_enq_valid $end
    $var wire  1 & io_flush $end
    $var wire  1 5 maybe_full $end
    $var wire  2 = ptr_diff [1:0] $end
    $var wire  1 6 ptr_match $end
    $var wire  4 / ram[0] [3:0] $end
    $var wire  4 0 ram[1] [3:0] $end
    $var wire  4 1 ram[2] [3:0] $end
    $var wire  2 3 ram_MPORT_addr [1:0] $end
    $var wire  4 % ram_MPORT_data [3:0] $end
    $var wire  1 4 ram_MPORT_en $end
    $var wire  1 @ ram_MPORT_mask $end
    $var wire  2 2 ram_io_deq_bits_MPORT_addr [1:0] $end
    $var wire  4 ( ram_io_deq_bits_MPORT_data [3:0] $end
    $var wire  1 @ ram_io_deq_bits_MPORT_en $end
    $var wire  1 ? reset $end
    $var wire  1 ; wrap $end
    $var wire  1 < wrap_1 $end
   $upscope $end
  $upscope $end
 $upscope $end
$enddefinitions $end


#0
1#
1$
b0001 %
0&
0'
b0000 (
b00 )
b00000 *
b00000 +
b000 ,
0-
0.
b0000 /
b0000 0
b0000 1
b00 2
b00 3
14
05
16
17
08
19
0:
0;
0<
b00 =
0>
1?
1@
#1
b0001 (
b0001 /
1>
#2
#3
#4
#5
#6
0>
#7
#8
#9
#10
0?
#11
b1011 %
1&
1'
b01 )
b00001 *
b001 ,
b01 3
15
06
07
1:
b01 =
1>
#12
#13
#14
#15
#16
0>
#17
#18
#19
#20
#21
0$
b0011 %
0&
0'
b00 )
b00010 *
b00010 +
b000 ,
1-
b1011 0
b00 3
04
05
16
17
09
0:
b00 =
1>
#22
#23
#24
#25
#26
0>
#27
#28
#29
#30
#31
1$
0-
14
19
1>
#32
#33
#34
#35
#36
0>
#37
#38
#39
#40
#41
b0100 %
1&
1'
b0011 (
b01 )
b00011 *
b001 ,
b0011 /
b01 3
15
06
07
1:
b01 =
1>
#42
#43
#44
#45
#46
0>
#47
#48
#49
#50
#51
0$
b1100 %
0&
0'
b00 )
b00100 *
b00100 +
b000 ,
1-
b0100 0
b00 3
04
05
16
17
09
0:
b00 =
1>
#52
#53
#54
#55
#56
0>
#57
#58
#59
#60
#61
1$
0-
14
19
1>
#62
#63
#64
#65
#66
0>
#67
#68
#69
#70
#71
b1101 %
1&
1'
b1100 (
b01 )
b00101 *
b001 ,
b1100 /
b01 3
15
06
07
1:
b01 =
1>
#72
#73
#74
#75
#76
0>
#77
#78
#79
#80
#81
0$
b0100 %
0&
0'
b00 )
b00110 *
b00110 +
b000 ,
1-
b1101 0
b00 3
04
05
16
17
09
0:
b00 =
1>
#82
#83
#84
#85
#86
0>
#87
#88
#89
#90
#91
1$
0-
14
19
1>
#92
#93
#94
#95
#96
0>
#97
#98
#99
#100
#101
b1110 %
1&
1'
b0100 (
b01 )
b00111 *
b001 ,
b0100 /
b01 3
15
06
07
1:
b01 =
1>
#102
#103
#104
#105
#106
0>
#107
#108
#109
#110
#111
0$
b1101 %
0&
0'
b00 )
b01000 *
b01000 +
b000 ,
1-
b1110 0
b00 3
04
05
16
17
09
0:
b00 =
1>
#112
#113
#114
#115
#116
0>
#117
#118
#119
#120
#121
1$
0-
14
19
1>
#122
#123
#124
#125
#126
0>
#127
#128
#129
#130
#131
b0101 %
1&
1'
b1101 (
b01 )
b01001 *
b001 ,
b1101 /
b01 3
15
06
07
1:
b01 =
1>
#132
#133
#134
#135
#136
0>
#137
#138
#139
#140
#141
0$
b0001 %
0&
0'
b00 )
b01010 *
b01010 +
b000 ,
1-
b0101 0
b00 3
04
05
16
17
09
0:
b00 =
1>
#142
#143
#144
#145
#146
0>
#147
#148
#149
#150
#151
1$
0-
14
19
1>
#152
#153
#154
#155
#156
0>
#157
#158
#159
#160
#161
b1100 %
1&
1'
b0001 (
b01 )
b01011 *
b001 ,
b0001 /
b01 3
15
06
07
1:
b01 =
1>
#162
#163
#164
#165
#166
0>
#167
#168
#169
#170
#171
0$
b0000 %
0&
0'
b00 )
b01100 *
b01100 +
b000 ,
1-
b1100 0
b00 3
04
05
16
17
09
0:
b00 =
1>
#172
#173
#174
#175
#176
0>
#177
#178
#179
#180
#181
1$
0-
14
19
1>
#182
#183
#184
#185
#186
0>
#187
#188
#189
#190
#191
b1011 %
1&
1'
b0000 (
b01 )
b01101 *
b001 ,
b0000 /
b01 3
15
06
07
1:
b01 =
1>
#192
#193
#194
#195
#196
0>
#197
#198
#199
#200
#201
0$
b0110 %
0&
0'
b00 )
b01110 *
b01110 +
b000 ,
1-
b1011 0
b00 3
04
05
16
17
09
0:
b00 =
1>
#202
#203
#204
#205
#206
0>
#207
#208
#209
#210
#211
1$
0-
14
19
1>
#212
#213
#214
#215
#216
0>
#217
#218
#219
#220
#221
1&
1'
b0110 (
b01 )
b01111 *
b001 ,
b0110 /
b01 3
15
06
07
1:
b01 =
1>
#222
#223
#224
#225
#226
0>
#227
#228
#229
#230
#231
0$
b1111 %
0&
0'
b00 )
b10000 *
b10000 +
b000 ,
1-
b0110 0
b00 3
04
05
16
17
09
0:
b00 =
1>
#232
#233
#234
#235
#236
0>
#237
#238
#239
#240
#241
1$
0-
14
19
1>
#242
#243
#244
#245
#246
0>
#247
#248
#249
#250
#251
b1010 %
1&
1'
b1111 (
b01 )
b10001 *
b001 ,
b1111 /
b01 3
15
06
07
1:
b01 =
1>
#252
#253
#254
#255
#256
0>
#257
#258
#259
#260
#261
0$
b0011 %
0&
0'
b00 )
b10010 *
b10010 +
b000 ,
1-
b1010 0
b00 3
04
05
16
17
09
0:
b00 =
1>
#262
#263
#264
#265
#266
0>
#267
#268
#269
#270
#271
1$
0-
14
19
1>
#272
#273
#274
#275
#276
0>
#277
#278
#279
#280
#281
b1100 %
1&
1'
b0011 (
b01 )
b10011 *
b001 ,
b0011 /
b01 3
15
06
07
1:
b01 =
1>
#282
#283
#284
#285
#286
0>
#287
#288
#289
#290
#291
0$
b0001 %
0&
0'
b00 )
b10100 *
b10100 +
b000 ,
1-
1.
b1100 0
b00 3
04
05
16
17
09
0:
b00 =
1>
